                 <svg version="1.1" xmlns="http://www.w3.org/2000/svg" xmlns:xlink="http://www.w3.org/1999/xlink" x="0px" y="0px"
	 viewBox="0 0 805.3 299.6" enable-background="new 0 0 805.3 299.6" xml:space="preserve">
					<g id="Layer_4">
					<path opacity="0.1" fill="#CCCBCB" d="M480.2,28.5V262c1.1,0.1,2.2,0.2,3,0.3c14.3,0.1,28.6,0.1,42.9,0.2h276.1v-234H480.2z"/>
					<path opacity="0.1" fill="#CCCBCB" d="M55.8,28.5v233.1c1.1,0.1,2.2,0.2,3,0.3c14.3,0.1,28.6,0.1,43,0.2h276.5V28.5H55.8z"/>
					<g>
					<g>
					<line fill="none" stroke="#A6A4A5" stroke-width="0.2995" stroke-miterlimit="10" x1="480.5" y1="215.6" x2="481.6" y2="215.6"/>
					<line fill="none" stroke="#A6A4A5" stroke-width="0.2995" stroke-miterlimit="10" stroke-dasharray="2.2032,2.2032" x1="483.8" y1="215.6" x2="800" y2="215.6"/>
					<line fill="none" stroke="#A6A4A5" stroke-width="0.2995" stroke-miterlimit="10" x1="801.1" y1="215.6" x2="802.2" y2="215.6"/>
					</g>
					</g>
					<g>
						<g>
							<line fill="none" stroke="#A6A4A5" stroke-width="0.2995" stroke-miterlimit="10" x1="480.5" y1="168.8" x2="481.6" y2="168.8"/>

								<line fill="none" stroke="#A6A4A5" stroke-width="0.2995" stroke-miterlimit="10" stroke-dasharray="2.2032,2.2032" x1="483.8" y1="168.8" x2="800" y2="168.8"/>
							<line fill="none" stroke="#A6A4A5" stroke-width="0.2995" stroke-miterlimit="10" x1="801.1" y1="168.8" x2="802.2" y2="168.8"/>
						</g>
					</g>
					<g>
						<g>
							<line fill="none" stroke="#A6A4A5" stroke-width="0.2995" stroke-miterlimit="10" x1="480.5" y1="122" x2="481.6" y2="122"/>

								<line fill="none" stroke="#A6A4A5" stroke-width="0.2995" stroke-miterlimit="10" stroke-dasharray="2.2032,2.2032" x1="483.8" y1="122" x2="800" y2="122"/>
							<line fill="none" stroke="#A6A4A5" stroke-width="0.2995" stroke-miterlimit="10" x1="801.1" y1="122" x2="802.2" y2="122"/>
						</g>
					</g>
					<g>
						<g>
							<line fill="none" stroke="#A6A4A5" stroke-width="0.2995" stroke-miterlimit="10" x1="480.5" y1="75.2" x2="481.6" y2="75.2"/>

								<line fill="none" stroke="#A6A4A5" stroke-width="0.2995" stroke-miterlimit="10" stroke-dasharray="2.2032,2.2032" x1="483.8" y1="75.2" x2="800" y2="75.2"/>
							<line fill="none" stroke="#A6A4A5" stroke-width="0.2995" stroke-miterlimit="10" x1="801.1" y1="75.2" x2="802.2" y2="75.2"/>
						</g>
					</g>
					<g>
						<text transform="matrix(1 0 0 1 120.4424 281.6089)" fill="#6D6E70" font-family="'MyriadPro-Bold'" font-size="14.15px">CABENUVA</text>
					</g>
					<text transform="matrix(1 0 0 1 230.6855 281.6089)" fill="#6D6E70" font-family="'MyriadPro-Bold'" font-size="14.15px">ABC/DTG/3TC*</text>
					<text transform="matrix(1 0 0 1 658.6133 281.6089)" fill="#6D6E70" font-family="'MyriadPro-Bold'" font-size="14.15px">ABC/DTG/3TC*</text>
					<g>
						<text transform="matrix(1 0 0 1 127.4214 295.9517)" fill="#6D6E70" font-family="'MyriadPro-Regular'" font-size="14px">(n=6/283)</text>
					</g>
					<text transform="matrix(1 0 0 1 247.5415 295.9517)" fill="#6D6E70" font-family="'MyriadPro-Regular'" font-size="14px">(n=7/283)</text>
					<g>

							<text transform="matrix(1 -1.780000e-03 1.780000e-03 1 552.425 281.6059)" fill="#6D6E70" font-family="'MyriadPro-Bold'" font-size="14.15px">CABENUVA</text>
					</g>
					<g>

							<text transform="matrix(1 -1.780000e-03 1.780000e-03 1 552.5976 296.0633)" fill="#6D6E70" font-family="'MyriadPro-Regular'" font-size="14px">(n=265/283)</text>
					</g>
					<linearGradient id="SVGID_1_" gradientUnits="userSpaceOnUse" x1="588.5959" y1="262.4653" x2="588.5959" y2="41.4138">
						<stop  offset="0" style="stop-color:#F1B78E"/>
						<stop  offset="1" style="stop-color:#E47425"/>
					</linearGradient>
					<defs>
            		<linearGradient id="grad3" gradientUnits="userSpaceOnUse" x1="602.6833" y1="265.4653" x2="602.6833" y2="48.4138">
                	<stop offset="0" stop-color="#F2B67A"/>
                	<stop offset="1" stop-color="#E67300" />
            		</linearGradient>
        			</defs>
					<path fill="url(#grad3)" d="M616.2,41.4H561c-5.5,0-10,4.5-10,10v143v-1.2v69.2h75.2v-68.1l0,0v-143
						C626.2,45.9,621.7,41.4,616.2,41.4z"/>
                        <!-- Orange bar -->
					<!-- <text transform="matrix(1 0 0 1 558.5748 82.3486)"><tspan x="0" y="0" fill="#FFFFFF" font-family="'ITC-ITCAvantGardePro-Demi'" font-size="34px">94</tspan><tspan x="36.4" y="0" fill="#FFFFFF" font-family="'ITC-ITCAvantGardePro-Demi'" font-size="28px">%</tspan></text> -->
					<!-- <g>
						<text transform="matrix(1 0 0 1 667.1143 295.9517)" fill="#6D6E70" font-family="'MyriadPro-Regular'" font-size="14px">(n=264/283)</text>
					</g> -->
					<!-- <rect x="24.2" y="210.7" fill="none" width="26.2" height="8.8"/>
					<text transform="matrix(1 0 0 1 38.2085 218.8311)" fill="#6D6E70" font-family="'ITC-ITCAvantGardePro-Bk'" font-size="11px">20</text>
					<rect x="24.2" y="254.5" fill="none" width="26.2" height="9"/>
					<text transform="matrix(1 0 0 1 44.3022 262.6094)" fill="#6D6E70" font-family="'ITC-ITCAvantGardePro-Bk'" font-size="11px">0</text>
					<rect x="24.2" y="163.7" fill="none" width="26.2" height="10.8"/> -->
					<!-- <text transform="matrix(1 0 0 1 38.2085 171.7939)" fill="#6D6E70" font-family="'ITC-ITCAvantGardePro-Bk'" font-size="11px">40</text>
					<rect x="24.2" y="116.6" fill="none" width="26.2" height="10.8"/>
					<text transform="matrix(1 0 0 1 38.2085 124.7568)" fill="#6D6E70" font-family="'ITC-ITCAvantGardePro-Bk'" font-size="11px">60</text>
					<rect x="24.2" y="70.6" fill="none" width="26.2" height="9.9"/>
					<text transform="matrix(1 0 0 1 38.2085 78.7197)" fill="#6D6E70" font-family="'ITC-ITCAvantGardePro-Bk'" font-size="11px">80</text>
					<rect x="24.3" y="24.5" fill="none" width="26.1" height="10"/>
					<text transform="matrix(1 0 0 1 32.1143 32.6045)" fill="#6D6E70" font-family="'ITC-ITCAvantGardePro-Bk'" font-size="11px">100</text>
					<g> -->
						<!-- <g>
							<line fill="none" stroke="#A6A4A5" stroke-width="0.3" stroke-miterlimit="10" x1="55.5" y1="215.6" x2="56.6" y2="215.6"/>

								<line fill="none" stroke="#A6A4A5" stroke-width="0.3" stroke-miterlimit="10" stroke-dasharray="2.2101,2.2101" x1="58.9" y1="215.6" x2="376" y2="215.6"/>
							<line fill="none" stroke="#A6A4A5" stroke-width="0.3" stroke-miterlimit="10" x1="377.1" y1="215.6" x2="378.2" y2="215.6"/>
						</g>
					</g>
					<g>
						<g>
							<line fill="none" stroke="#A6A4A5" stroke-width="0.3" stroke-miterlimit="10" x1="55.5" y1="168.8" x2="56.6" y2="168.8"/> -->

								<!-- <line fill="none" stroke="#A6A4A5" stroke-width="0.3" stroke-miterlimit="10" stroke-dasharray="2.2101,2.2101" x1="58.9" y1="168.8" x2="376" y2="168.8"/> -->
							<!-- <line fill="none" stroke="#A6A4A5" stroke-width="0.3" stroke-miterlimit="10" x1="377.1" y1="168.8" x2="378.2" y2="168.8"/>
						</g>
					</g>
					<g>
						<g>
							<line fill="none" stroke="#A6A4A5" stroke-width="0.3" stroke-miterlimit="10" x1="55.5" y1="122" x2="56.6" y2="122"/>

								<line fill="none" stroke="#A6A4A5" stroke-width="0.3" stroke-miterlimit="10" stroke-dasharray="2.2101,2.2101" x1="58.9" y1="122" x2="376" y2="122"/>
							<line fill="none" stroke="#A6A4A5" stroke-width="0.3" stroke-miterlimit="10" x1="377.1" y1="122" x2="378.2" y2="122"/>
						</g>
					</g>
					<g>
						<g>
							<line fill="none" stroke="#A6A4A5" stroke-width="0.3" stroke-miterlimit="10" x1="55.5" y1="75.2" x2="56.6" y2="75.2"/>

								<line fill="none" stroke="#A6A4A5" stroke-width="0.3" stroke-miterlimit="10" stroke-dasharray="2.2101,2.2101" x1="58.9" y1="75.2" x2="376" y2="75.2"/>
							<line fill="none" stroke="#A6A4A5" stroke-width="0.3" stroke-miterlimit="10" x1="377.1" y1="75.2" x2="378.2" y2="75.2"/>
						</g>
					</g>
					<path fill="#989898" d="M240.9,256.5v5.5c0.2,0,0.5,0,0.7,0c3.2,0,6.3,0,9.5,0h61.2v-5.5H240.9z"/>
					<path fill="#E47425" d="M120.7,257.5v4.5c0.2,0,0.5,0,0.7,0c3.2,0,6.3,0,9.5,0h61.3v-4.5H120.7z"/>
					<text transform="matrix(1 -1.920000e-03 1.920000e-03 1 138.9216 253.8815)"><tspan x="0" y="0" fill="#E47425" font-family="'ITC-ITCAvantGardePro-Demi'" font-size="34px">2</tspan><tspan x="18.2" y="0" fill="#E47425" font-family="'ITC-ITCAvantGardePro-Demi'" font-size="28px">%</tspan></text>
					<g>
						<text transform="matrix(1 1.260000e-03 -1.260000e-03 1 255.4077 253.7228)"><tspan x="0" y="0" fill="#989898" font-family="'ITC-ITCAvantGardePro-Demi'" font-size="34px">2</tspan><tspan x="18.2" y="0" fill="#989898" font-family="'ITC-ITCAvantGardePro-Demi'" font-size="28px">%</tspan></text>
					</g>
					<g>
						<rect x="41.2" fill="none" width="351.7" height="16.5"/>
						<text transform="matrix(1 0 0 1 60 10)"><tspan x="13.4" y="0" fill="#6D6E70" font-family="'MyriadPro-Bold'" font-size="14px"></tspan></text>
						<text transform="matrix(1 0 0 1 60 25)"><tspan x="13.4" y="0" fill="#6D6E70" font-family="'MyriadPro-Bold'" font-size="14px"></tspan></text>
					</g>
					<g>

							<rect x="-111.1" y="135.7" transform="matrix(1.432666e-03 -1 1 1.432666e-03 -135.5385 151.6998)" fill="none" width="238.5" height="16"/>
						<text transform="matrix(0 -1 1 0 12.5552 224.3994)" fill="#6D6E70" font-family="'MyriadPro-Regular'" font-size="15px">Proportion of patients (%)</text>
					</g> -->
					<!-- <text transform="matrix(1 0 0 1 495 10)" fill="#6D6E70" font-family="'MyriadPro-Bold'" font-size="14px"></text>
					<text transform="matrix(1 0 0 1 495 25)" fill="#6D6E70" font-family="'MyriadPro-Bold'" font-size="14px"></text>
					<rect x="449.2" y="210.7" fill="none" width="26.2" height="8.8"/>
					<text transform="matrix(1 0 0 1 463.2085 218.8311)" fill="#6D6E70" font-family="'ITC-ITCAvantGardePro-Bk'" font-size="11px">20</text>
					<rect x="449.2" y="254.5" fill="none" width="26.2" height="9"/> -->
					<text transform="matrix(1 0 0 1 469.3022 262.6094)" fill="#6D6E70" font-family="'ITC-ITCAvantGardePro-Bk'" font-size="11px">0</text>
					<rect x="449.2" y="163.7" fill="none" width="26.2" height="10.8"/>
					<text transform="matrix(1 0 0 1 463.2085 171.7939)" fill="#6D6E70" font-family="'ITC-ITCAvantGardePro-Bk'" font-size="11px">40</text>
					<rect x="449.2" y="116.6" fill="none" width="26.2" height="10.8"/>
					<!-- <text transform="matrix(1 0 0 1 463.2085 124.7568)" fill="#6D6E70" font-family="'ITC-ITCAvantGardePro-Bk'" font-size="11px">60</text> -->
					<!-- <rect x="449.2" y="70.6" fill="none" width="26.2" height="9.9"/> -->
					<!-- <text transform="matrix(1 0 0 1 463.2085 78.7197)" fill="#6D6E70" font-family="'ITC-ITCAvantGardePro-Bk'" font-size="11px">80</text> -->
					<!-- <rect x="449.3" y="24.5" fill="none" width="26.1" height="10"/> -->
					<!-- <text transform="matrix(1 0 0 1 457.1143 32.6045)" fill="#6D6E70" font-family="'ITC-ITCAvantGardePro-Bk'" font-size="11px">100</text> -->
					<!-- <g>

							<rect x="314.9" y="135.7" transform="matrix(1.432666e-03 -1 1 1.432666e-03 289.849 577.6972)" fill="none" width="238.5" height="16"/>
						<text transform="matrix(0 -1 1 0 438.5552 224.3994)" fill="#6D6E70" font-family="'MyriadPro-Regular'" font-size="15px">Proportion of patients (%)</text>
					</g> -->
					<!-- <rect x="77.6" y="179.5" fill="none" width="285.8" height="33"/>
					<text transform="matrix(1 0 0 1 164.4283 191.1851)"><tspan x="0" y="0" fill="#6D6E70" font-family="'MyriadPro-Bold'" font-size="14px">Difference: -0.4%</tspan><tspan x="107.2" y="0" fill="#6D6E70" font-family="'MyriadPro-Regular'" font-size="13px"> </tspan><tspan x="-2.9" y="13" fill="#6D6E70" font-family="'MyriadPro-Regular'" font-size="13px">(95% CI: -2.8%, 2.1%)</tspan></text>
					<polyline fill="none" stroke="#6D6E70" stroke-width="0.4851" stroke-miterlimit="10" points="282.2,212.5 282.2,208.5 
						159.2,208.5 159.2,212.5 	"/> -->
					<!-- <g>
						<g>
							<g>
								<linearGradient id="SVGID_2_" gradientUnits="userSpaceOnUse" x1="1386.5651" y1="-157.123" x2="1386.5651" y2="-383.1745">
									<stop  offset="9.273726e-02" style="stop-color:#9A9B9D"/>
									<stop  offset="1" style="stop-color:#808285;stop-opacity:0.8"/>
								</linearGradient>
								<path fill="url(#SVGID_2_)" d="M1413.8-383.2h-54.3c-5.5,0-9.9,4.4-9.9,9.9l-0.1,216.2v0v0h74.1l0.1-75.1l0,0v-141.1
									C1423.6-378.8,1419.2-383.2,1413.8-383.2z"/>
							</g>
						</g>
					</g> -->
					<!-- <rect x="676.5" y="-477.1" fill="#F6BE00" width="836" height="3"/> -->
					<!-- <rect x="676.5" y="-497" fill="none" width="561" height="13.9"/> -->
					<!-- <text transform="matrix(1 0 0 1 676.483 -484.2314)" fill="#506D85" font-family="'MyriadPro-Bold'" font-size="18px">ITT-E FDA snapshot Virologic outcomeS</text> -->
					<!-- <text transform="matrix(0.583 0 0 0.583 1038.0114 -490.2255)" fill="#506D85" font-family="'MyriadPro-Bold'" font-size="18px">2,3</text> -->
					<defs>
						<filter id="Adobe_OpacityMaskFilter" filterUnits="userSpaceOnUse" x="1228.7" y="-360.2" width="1" height="203.1">
							<feColorMatrix  type="matrix" values="1 0 0 0 0  0 1 0 0 0  0 0 1 0 0  0 0 0 1 0"/>
						</filter>
					</defs>
					<mask maskUnits="userSpaceOnUse" x="1228.7" y="-360.2" width="1" height="203.1" id="SVGID_3_">
						<g filter="url(#Adobe_OpacityMaskFilter)">
							<path fill="#FFFFFF" d="M1205.4-374.2h27.1c2.7,0,4.9,4.5,4.9,10v143v-1.2v65.2h-36.9v-64.1l0,0v-143
								C1200.5-369.7,1202.7-374.2,1205.4-374.2z"/>
						</g>
					</mask>
					<linearGradient id="SVGID_4_" gradientUnits="userSpaceOnUse" x1="1228.7043" y1="-258.6845" x2="1229.7167" y2="-258.6845">
						<stop  offset="0" style="stop-color:#2483C5;stop-opacity:0"/>
						<stop  offset="0.1752" style="stop-color:#2475AE;stop-opacity:8.757660e-02"/>
						<stop  offset="0.5437" style="stop-color:#235172;stop-opacity:0.2719"/>
						<stop  offset="1" style="stop-color:#231F20;stop-opacity:0.5"/>
					</linearGradient>
					<line opacity="0.5" mask="url(#SVGID_3_)" fill="url(#SVGID_4_)" x1="1229.7" y1="-360.2" x2="1228.7" y2="-157.1"/>
					<defs>
						<filter id="Adobe_OpacityMaskFilter_1_" filterUnits="userSpaceOnUse" x="542.4" y="43.5" width="13.3" height="219">
							<feColorMatrix  type="matrix" values="1 0 0 0 0  0 1 0 0 0  0 0 1 0 0  0 0 0 1 0"/>
						</filter>
					</defs>
					<mask maskUnits="userSpaceOnUse" x="542.4" y="43.5" width="13.3" height="219" id="SVGID_5_">
						<g filter="url(#Adobe_OpacityMaskFilter_1_)">
							<path fill="#FFFFFF" d="M519.1,41.8h27.1c2.7,0,4.9,4.6,4.9,10.2v145.4v-1.2v66.3h-36.9v-65.2l0,0V51.9
								C514.2,46.3,516.4,41.8,519.1,41.8z"/>
						</g>
					</mask>
					<linearGradient id="SVGID_6_" gradientUnits="userSpaceOnUse" x1="542.4291" y1="152.9653" x2="555.6988" y2="152.9653">
						<stop  offset="0" style="stop-color:#2483C5;stop-opacity:0"/>
						<stop  offset="0.1752" style="stop-color:#2475AE;stop-opacity:8.757660e-02"/>
						<stop  offset="0.5437" style="stop-color:#235172;stop-opacity:0.2719"/>
						<stop  offset="1" style="stop-color:#231F20;stop-opacity:0.5"/>
					</linearGradient>
					<polygon opacity="0.5" mask="url(#SVGID_5_)" fill="url(#SVGID_6_)" points="555.7,43.5 543.4,55.9 542.4,262.5 555.7,262.5 	"/>
				</g>
				<g id="BOXES_CHANGES">
					<defs>
						<filter id="Adobe_OpacityMaskFilter_2_" filterUnits="userSpaceOnUse" x="657.4" y="47.1" width="13.3" height="215.4">
							<feColorMatrix  type="matrix" values="1 0 0 0 0  0 1 0 0 0  0 0 1 0 0  0 0 0 1 0"/>
						</filter>
					</defs>
					<mask maskUnits="userSpaceOnUse" x="657.4" y="47.1" width="13.3" height="215.4" id="SVGID_7_">
						<g filter="url(#Adobe_OpacityMaskFilter_2_)">
							<path fill="#FFFFFF" d="M634.1,66.5h27.1c2.7,0,4.9,4.5,4.9,10v143v-1.2v65.2h-36.9v-64.1l0,0v-143
								C629.2,49.9,631.4,45.4,634.1,45.4z"/>
						</g>
					</mask>
					<linearGradient id="SVGID_8_" gradientUnits="userSpaceOnUse" x1="657.4291" y1="154.7751" x2="670.6988" y2="154.7751">
						<stop  offset="0" style="stop-color:#2483C5;stop-opacity:0"/>
						<stop  offset="0.1752" style="stop-color:#2475AE;stop-opacity:8.757660e-02"/>
						<stop  offset="0.5437" style="stop-color:#235172;stop-opacity:0.2719"/>
						<stop  offset="1" style="stop-color:#231F20;stop-opacity:0.5"/>
					</linearGradient>
					<polygon opacity="0.5" mask="url(#SVGID_7_)" fill="url(#SVGID_8_)" points="670.7,47.1 658.4,59.3 657.4,262.5 670.7,262.5 	"/>
					<rect x="56.2" y="28.5" fill="none" stroke="#000000" stroke-width="0.2735" stroke-miterlimit="10" width="322" height="234"/>
					<!-- graybar below -->
                    <g>
						<g>
							<g>
								<linearGradient id="SVGID_9_" gradientUnits="userSpaceOnUse" x1="703.2898" y1="262.4653" x2="703.2898" y2="45.4138">
									<stop  offset="0" style="stop-color:#9A9B9D"/>
									<stop  offset="1" style="stop-color:#808285;stop-opacity:0.8"/>
								</linearGradient>
								<path fill="url(#SVGID_9_)" stroke-width="1" stroke="black" d="M730.5,55.4h-54.3c-5.5,0,-9.9,4.2,-9.9,9.5v197.6h74.1v-197.6c0,-7.5,-9.9,-10,-9.0,-9.5z/>
							</g>
						</g>
						<g>
							<g>
								<linearGradient id="SVGID_10_" gradientUnits="userSpaceOnUse" x1="703.2898" y1="262.4653" x2="703.2898" y2="45.4138">
									<stop  offset="0" style="stop-color:#9A9B9D"/>
									<stop  offset="1" style="stop-color:#808285;stop-opacity:0.8"/>
								</linearGradient>
								<path fill="url(#SVGID_10_)" stroke-width="1" stroke="black" d="M730.5,55.4h-54.3c-5.5,0,-9.9,4.2,-9.9,9.5v197.6h74.1v-197.6c0,-7.5,-9.9,-10,-9.0,-9.5z/>
								<linearGradient id="SVGID_11_" gradientUnits="userSpaceOnUse" x1="703.2898" y1="262.4653" x2="703.2898" y2="45.4138">
									<stop  offset="0" style="stop-color:#9A9B9D"/>
									<stop  offset="1" style="stop-color:#808285;stop-opacity:0.8"/>
								</linearGradient>
								<path fill="url(#SVGID_11_)" stroke-width="1" stroke="black" d="M730.5,55.4h-54.3c-5.5,0,-9.9,4.2,-9.9,9.5v197.6h74.1v-197.6c0,-7.5,-9.9,-10,-9.0,-9.5z/>
							</g>
						</g>
					</g>
					<rect x="480.2" y="28.5" fill="none" stroke="#000000" stroke-width="0.2735" stroke-miterlimit="10" width="322" height="234"/>
					<text transform="matrix(1 0 0 1 675.6685 82.3486)"><tspan x="0" y="0" fill="#FFFFFF" font-family="'ITC-ITCAvantGardePro-Demi'" font-size="34px">93</tspan><tspan x="36.4" y="0" fill="#FFFFFF" font-family="'ITC-ITCAvantGardePro-Demi'" font-size="28px">%</tspan></text>
				</g>
				</svg>