<svg xmlns="http://www.w3.org/2000/svg" width="57" height="56">
    <path fill="#506C85" fill-rule="evenodd" d="M27.716 6c11.874 0 21.5 9.626 21.5 21.5S39.59 49 27.716 49C15.841 49 6.215 39.374 6.215 27.5S15.841 6 27.716 6z"/>
    <path fill="none" fill-rule="evenodd" stroke="#F6BD00" stroke-width="2" d="M27.716 1c14.635 0 26.499 11.864 26.499 26.5S42.351 54 27.716 54C13.08 54 1.215 42.136 1.215 27.5S13.08 1 27.716 1z"/>
    <text x="21" y="35.13" fill="#FFF" font-family="Myriad Pro" font-size="12" font-weight="bold">
        2
    </text>
</svg>
