<svg version="1.1" title="CabUS_HCP_83_Donut" id="GRAPHIC" xmlns="http://www.w3.org/2000/svg" xmlns:xlink="http://www.w3.org/1999/xlink" x="0px"
		y="0px" viewBox="0 0 318.6 120.5" enable-background="new 0 0 318.6 120.5" xml:space="preserve">
		<rect x="135.7" y="21.5" fill="none" width="182.9" height="91.4" />
		<text transform="matrix(1.0671 0 0 1 135.68 34.7289)" fill="#506D85" font-family="'ITCAvantGardePro-Demi'"
				font-size="17.8097px">of patients </text>
		<text transform="matrix(1.0671 0 0 1 135.68 53.726)" fill="#506D85" font-family="'ITCAvantGardePro-Demi'"
				font-size="17.8097px">experienced at </text>
		<text transform="matrix(1.0671 0 0 1 135.68 72.7231)" fill="#506D85" font-family="'ITCAvantGardePro-Demi'"
				font-size="17.8097px">least one ISR </text>
		<text transform="matrix(1.0671 0 0 1 135.68 91.7202)" fill="#506D85" font-family="'ITCAvantGardePro-Demi'"
				font-size="17.8097px">through Week 48
				<tspan font-size="8px" dx="-4" dy="-2" transform="matrix(1.0671 0 0 1 135.68 91.7202)" baseline-shift="super">1</tspan>
		</text>
		<!-- <text transform="matrix(0.6221 0 0 0.583 290.7561 85.7895)" fill="#506D85" font-family="'ITCAvantGardePro-Demi'"
				font-size="17.8097px">1</text> -->
		<text transform="matrix(1.0671 0 0 1 296.9612 91.7202)" fill="#506D85" font-family="'ITCAvantGardePro-Demi'"
				font-size="17.8097px"> </text>
		<circle fill="none" stroke="#F2F2F2" stroke-width="14" stroke-linecap="round" stroke-miterlimit="10" cx="60.4"
				cy="60.2" r="53.2" />
		<circle fill="none" stroke="#EDEDED" stroke-width="14" stroke-linecap="round" stroke-miterlimit="10" cx="60.5"
				cy="60.4" r="45.6" />
		<path fill="#506D85" d="M114.6,86.2c0-0.1,0.1-0.1,0.1-0.2c0.4-0.7,0.7-1.5,1-2.3c0.1-0.2,0.2-0.4,0.3-0.6c0.3-0.6,0.5-1.2,0.7-1.9
		c0.1-0.3,0.2-0.6,0.4-1c0.2-0.5,0.3-1,0.5-1.5c0.1-0.4,0.3-0.9,0.4-1.3c0.1-0.4,0.2-0.8,0.3-1.2c0.2-0.5,0.3-1.1,0.4-1.6
		c0.1-0.2,0.1-0.5,0.2-0.7c0.4-1.6,0.7-3.3,1-5c0.1-0.6,0.2-1.2,0.2-1.8c0-0.3,0.1-0.7,0.1-1c1.4-13.9-2.1-27.7-9.9-39.4
		C102.6,15.2,91.5,7,78.5,2.9c-0.2-0.1-0.5-0.2-0.7-0.2c-0.3-0.1-0.6-0.2-0.8-0.2C71.5,0.8,65.9,0,60,0c-3.9,0-7,3.2-7,7
		c0,3.9,3.2,7,7,7c3.1,0,6.2,0.3,9.1,0.9c0,0,0,0,0,0c1.3,0.3,2.6,0.6,3.8,0.9c0.2,0.1,0.5,0.1,0.7,0.2c0.2,0.1,0.3,0.1,0.5,0.2
		c18.6,5.9,32.2,23.3,32.3,43.9c0,1.6-0.1,3.2-0.2,4.7c0,0.2-0.1,0.5-0.1,0.7c-0.1,0.5-0.1,1-0.2,1.4c-0.1,0.8-0.2,1.5-0.4,2.2
		c-0.5,2.3-1.1,4.5-1.8,6.7c-2.5,7-6.7,13.3-12.1,18.3c-0.1,0.1-0.1,0.1-0.2,0.2c-0.4,0.3-0.7,0.6-1.1,1c-0.2,0.2-0.4,0.4-0.6,0.6
		c-0.2,0.2-0.5,0.4-0.7,0.6c-0.4,0.3-0.7,0.6-1.1,0.9c-0.1,0.1-0.2,0.1-0.3,0.2c-5.9,4.3-12.8,7.2-20.1,8.4c-2.3,0.4-4.6,0.5-7,0.6
		c-0.8,0-1.6,0-2.3,0c-0.1,0-0.3,0-0.4,0c-0.6,0-1.2-0.1-1.9-0.1c-0.5,0-1-0.1-1.5-0.2c-0.3,0-0.5-0.1-0.8-0.1
		c-0.8-0.1-1.5-0.2-2.3-0.4c-2.2-0.4-4.3-1-6.3-1.7c-7.2-2.5-13.6-6.7-18.6-12.2c-0.1-0.1-0.2-0.2-0.2-0.3c-0.3-0.3-0.6-0.7-0.9-1.1
		c-0.2-0.2-0.4-0.5-0.6-0.7c-0.2-0.2-0.4-0.5-0.5-0.7c-0.3-0.4-0.6-0.8-0.9-1.1c-0.1-0.1-0.1-0.2-0.2-0.3c-4.3-5.9-7.3-12.8-8.4-20.2
		c-0.4-2.3-0.5-4.6-0.6-7c0-0.3,0-0.6,0-0.8c0-0.4,0-0.8,0-1.1c0-0.3,0-0.5,0-0.8c0-0.5,0.1-1,0.1-1.4c0-0.2,0-0.4,0.1-0.6
		c0.1-0.6,0.1-1.2,0.2-1.8c0-0.1,0-0.2,0-0.3c0.1-0.7,0.2-1.5,0.4-2.2c1-5,2.8-9.8,5.3-14.2c1.9-3.3,0.8-7.6-2.6-9.6
		c-3.3-1.9-7.6-0.8-9.6,2.6C6.1,33.5,4.5,37,3.3,40.7c0,0.1-0.1,0.2-0.1,0.4c-1.1,3.4-2,6.9-2.5,10.4c0,0.2,0,0.3-0.1,0.5
		c-0.1,0.8-0.2,1.5-0.3,2.3c0,0.3-0.1,0.6-0.1,0.9c-0.1,0.6-0.1,1.2-0.1,1.8c0,0.4,0,0.7-0.1,1.1c0,0.5,0,1,0,1.5
		c0,3.4,0.2,6.8,0.7,10.1c1.5,9.7,5.4,18.7,11,26.3c0.1,0.1,0.2,0.2,0.3,0.4c0.4,0.5,0.8,1,1.2,1.5c0.2,0.3,0.5,0.6,0.7,0.9
		c0.2,0.3,0.5,0.6,0.8,0.9c0.4,0.5,0.8,0.9,1.2,1.4c0.1,0.1,0.2,0.2,0.3,0.3c6.4,6.9,14.5,12.4,23.8,15.8c3.7,1.3,7.6,2.3,11.6,2.9
		c0.3,0,0.6,0.1,0.9,0.1c0.7,0.1,1.4,0.2,2.1,0.2c2,0.2,4.1,0.3,6.1,0.3c1,0,2,0,3-0.1c0.1,0,0.2,0,0.3,0c0.8,0,1.7-0.1,2.5-0.2
		c0.3,0,0.6-0.1,0.9-0.1c0.6-0.1,1.2-0.1,1.8-0.2c0.4-0.1,0.9-0.1,1.3-0.2c0.4-0.1,0.9-0.2,1.3-0.2c0.5-0.1,1.1-0.2,1.6-0.3
		c0.2,0,0.4-0.1,0.7-0.2c8.7-2,16.7-6,23.6-11.3c0.4-0.3,0.7-0.6,1.1-0.9c0.3-0.2,0.5-0.4,0.7-0.6c0.5-0.4,1-0.8,1.4-1.3
		c0.2-0.1,0.3-0.3,0.5-0.5c0.6-0.5,1.1-1.1,1.7-1.6c0.1-0.1,0.2-0.2,0.2-0.2C107.7,97.8,111.7,92.3,114.6,86.2z" />
		<circle fill="none" stroke="#F6F8F9" stroke-width="14" stroke-linecap="round" stroke-miterlimit="10" cx="60.5"
				cy="60.4" r="37.9" />
		<rect x="24.9" y="49.9" fill="none" width="76.9" height="23.8" />
		<text transform="matrix(1 0 0 1 36.2691 69.7692)">
				<tspan x="0" y="0" fill="#506D85" font-family="'ITCAvantGardePro-Demi'" font-size="31px">8</tspan>
				<tspan x="16.9" y="0" fill="#506D85" font-family="'ITCAvantGardePro-Demi'" font-size="31px">3</tspan>
				<tspan x="34.3" y="0" fill="#506D85" font-family="'ITCAvantGardePro-Demi'" font-size="23px">%</tspan>
		</text>
</svg>
