<?xml version="1.0" encoding="utf-8"?>
<!-- Generator: Adobe Illustrator 24.0.0, SVG Export Plug-In . SVG Version: 6.00 Build 0)  -->
<svg version="1.1" id="GRAPHIC" xmlns="http://www.w3.org/2000/svg" xmlns:xlink="http://www.w3.org/1999/xlink" x="0px" y="0px"
	 viewBox="0 0 419.27 612.98" enable-background="new 0 0 419.27 612.98" xml:space="preserve">
<rect x="169.21" y="179.39" transform="matrix(1 -3.443744e-03 3.443744e-03 1 -0.705 1.0127)" fill="#FAE5D8" width="249" height="51.65"/>
<text transform="matrix(1 0 0 1 261.0877 210.7948)" fill="#555555" font-family="'MyriadPro-Regular'" font-size="18px">140 (1%)</text>
<polygon fill="#F1F2F2" points="0.23,180.7 167.55,179.82 167.69,231.47 0.37,232.35 "/>
<text transform="matrix(1 0 0 1 15.2724 211.6967)" fill="#555555" font-family="'MyriadPro-Semibold'" font-size="18px">Nodule</text>
<polygon fill="#F1F2F2" points="0.37,233.57 167.69,232.69 167.82,284.34 0.51,285.22 "/>
<text transform="matrix(1 0 0 1 15.4101 264.5717)" fill="#555555" font-family="'MyriadPro-Semibold'" font-size="18px">Induration</text>
<polygon fill="#F1F2F2" points="0.51,286.45 167.83,285.57 167.97,340.72 0.65,341.6 "/>
<text transform="matrix(1 0 0 1 15.5483 317.4467)" fill="#555555" font-family="'MyriadPro-Semibold'" font-size="18px">Swelling</text>
<rect x="0" fill="#DFE1E1" width="167.24" height="72.45"/>
<rect x="169.35" y="232.27" transform="matrix(1 -3.443744e-03 3.443744e-03 1 -0.8871 1.0135)" fill="#FFEFE6" width="249" height="51.65"/>
<text transform="matrix(1 0 0 1 255.8616 263.6714)" fill="#555555" font-family="'MyriadPro-Regular'" font-size="18px">136 (&lt;1%)</text>
<rect x="169.49" y="285.14" transform="matrix(1 -3.443744e-03 3.443744e-03 1 -1.0752 1.0143)" fill="#FAE5D8" width="249" height="55.15"/>
<text transform="matrix(1 0 0 1 260.6165 316.5481)" fill="#555555" font-family="'MyriadPro-Regular'" font-size="18px">86 (&lt;1%)</text>
<linearGradient id="SVGID_1_" gradientUnits="userSpaceOnUse" x1="293.4135" y1="72.4533" x2="293.4135" y2="0">
	<stop  offset="5.890377e-03" style="stop-color:#E47425"/>
	<stop  offset="0.9954" style="stop-color:#E99051"/>
</linearGradient>
<rect x="168.91" fill="url(#SVGID_1_)" width="249" height="72.45"/>
<text transform="matrix(1 0 0 1 237.094 32.8005)"><tspan x="0" y="0" fill="#FFFFFF" font-family="'ITCAvantGardePro-Bold'" font-size="20px">CABENUVA </tspan><tspan x="26.61" y="22" fill="#FFFFFF" font-family="'ITCAvantGardePro-Md'" font-size="18px">(N=591)</tspan></text>
<polygon fill="#F1F2F2" points="0.1,127.82 167.41,126.94 167.55,178.59 0.23,179.47 "/>
<text transform="matrix(1 0 0 1 15.1348 158.8203)" fill="#555555" font-family="'MyriadPro-Semibold'" font-size="18px">Pain</text>
<rect x="169.08" y="126.51" transform="matrix(1 -3.443744e-03 3.443744e-03 1 -0.5229 1.0119)" fill="#FFEFE6" width="249" height="51.65"/>
<text transform="matrix(1 0 0 1 251.7163 157.9172)" fill="#555555" font-family="'MyriadPro-Regular'" font-size="18px">3087 (21%)</text>
<polygon fill="#F1F2F2" points="0,74.91 167.32,74.03 167.45,125.66 0.13,126.54 "/>
<text transform="matrix(1.0004 0 0 1 15.0388 105.8999)" fill="#555555" font-family="'MyriadPro-Bold'" font-size="17.9926px">Injections given</text>
<rect x="168.98" y="73.6" transform="matrix(1 -3.443744e-03 3.443744e-03 1 -0.3407 1.0113)" fill="#FFEFE6" width="249" height="51.65"/>
<text transform="matrix(1 0 0 1 266.1548 105.0213)" fill="#555555" font-family="'MyriadPro-Bold'" font-size="18px">14,682</text>
<rect x="169.78" y="394.4" transform="matrix(1 -3.443744e-03 3.443744e-03 1 -1.4454 1.0159)" fill="#FAE5D8" width="249" height="51.65"/>
<text transform="matrix(1 0 0 1 260.9009 425.8032)" fill="#555555" font-family="'MyriadPro-Regular'" font-size="18px">37 (&lt;1%)</text>
<polygon fill="#F1F2F2" points="0.79,395.7 168.11,394.82 168.25,446.47 0.93,447.35 "/>
<text transform="matrix(1 0 0 1 15.833 426.6987)" fill="#555555" font-family="'MyriadPro-Semibold'" font-size="18px">Pruritus</text>
<polygon fill="#F1F2F2" points="0.93,448.58 168.25,447.7 168.39,499.35 1.07,500.22 "/>
<text transform="matrix(1 0 0 1 15.9707 479.5747)" fill="#555555" font-family="'MyriadPro-Semibold'" font-size="18px">Bruising</text>
<polygon fill="#F1F2F2" points="1.07,501.45 168.39,500.57 168.53,555.72 1.21,556.6 "/>
<text transform="matrix(1 0 0 1 16.1084 532.4497)" fill="#555555" font-family="'MyriadPro-Semibold'" font-size="18px">Warmth</text>
<rect x="169.91" y="447.28" transform="matrix(1 -3.443744e-03 3.443744e-03 1 -1.6275 1.0167)" fill="#FFEFE6" width="249" height="51.65"/>
<text transform="matrix(1 0 0 1 261.0388 478.6798)" fill="#555555" font-family="'MyriadPro-Regular'" font-size="18px">24 (&lt;1%)</text>
<rect x="170.06" y="500.15" transform="matrix(1 -3.443744e-03 3.443744e-03 1 -1.8156 1.0175)" fill="#FAE5D8" width="249" height="55.15"/>
<text transform="matrix(1 0 0 1 261.1765 531.5575)" fill="#555555" font-family="'MyriadPro-Regular'" font-size="18px">47 (&lt;1%)</text>
<polygon fill="#F1F2F2" points="1.22,557.83 168.54,556.95 168.68,612.1 1.36,612.98 "/>
<text transform="matrix(1 0 0 1 16.2558 588.8267)" fill="#555555" font-family="'MyriadPro-Semibold'" font-size="18px">Hematoma</text>
<rect x="170.2" y="556.53" transform="matrix(1 -3.443744e-03 3.443744e-03 1 -2.0098 1.0183)" fill="#FFEFE6" width="249" height="55.15"/>
<text transform="matrix(1 0 0 1 261.3235 587.9365)" fill="#555555" font-family="'MyriadPro-Regular'" font-size="18px">12 (&lt;1%)</text>
<polygon fill="#F1F2F2" points="0.66,342.83 167.98,341.95 168.11,393.6 0.79,394.47 "/>
<text transform="matrix(1 0 0 1 15.6953 373.8232)" fill="#555555" font-family="'MyriadPro-Semibold'" font-size="18px">Erythema</text>
<rect x="169.64" y="341.52" transform="matrix(1 -3.443744e-03 3.443744e-03 1 -1.2633 1.0151)" fill="#FFEFE6" width="249" height="51.65"/>
<text transform="matrix(1 0 0 1 260.7632 372.9276)" fill="#555555" font-family="'MyriadPro-Regular'" font-size="18px">60 (&lt;1%)</text>
<g>
	<path fill="#FFFFFF" stroke="#F6BE00" stroke-width="14" stroke-linecap="round" stroke-miterlimit="10" d="M811.2,41.69"/>
</g>
<g>
	<path fill="#FFFFFF" stroke="#F6BE00" stroke-width="14" stroke-linecap="round" stroke-miterlimit="10" d="M612.45,95.15"/>
</g>
</svg>
