<?xml version="1.0" encoding="utf-8"?>
<!-- Generator: Adobe Illustrator 24.0.0, SVG Export Plug-In . SVG Version: 6.00 Build 0)  -->
<svg version="1.1" id="Layer_1" xmlns="http://www.w3.org/2000/svg" xmlns:xlink="http://www.w3.org/1999/xlink" x="0px" y="0px"
	 viewBox="0 0 858.64 533.96" enable-background="new 0 0 858.64 533.96" xml:space="preserve">
<rect x="227.57" y="158.27" fill="#F8E3D6" width="104.05" height="43.9"/>
<text transform="matrix(1 0 0 1 267.8509 189.0535)" fill="#6D6E70" font-family="'MyriadPro-Regular'" font-size="18px">8%</text>
<rect y="158.18" fill="#F1F1F1" width="226.31" height="43.9"/>
<text transform="matrix(1 0 0 1 9.9997 185.9614)" fill="#6D6E70" font-family="'MyriadPro-Semibold'" font-size="18px">Pyrexia</text>
<text transform="matrix(0.583 0 0 0.583 68.0305 179.9673)" fill="#6D6E70" font-family="'MyriadPro-Semibold'" font-size="18px">†</text>
<rect y="203.16" fill="#F1F1F1" width="226.31" height="43.9"/>
<text transform="matrix(1 0 0 1 9.9997 230.9414)" fill="#6D6E70" font-family="'MyriadPro-Semibold'" font-size="18px">Fatigue</text>
<text transform="matrix(0.583 0 0 0.583 69.0744 224.9473)" fill="#6D6E70" font-family="'MyriadPro-Semibold'" font-size="18px">‡</text>
<rect y="248.14" fill="#F1F1F1" width="226.31" height="46.87"/>
<text transform="matrix(1 0 0 1 9.9997 275.9202)" fill="#6D6E70" font-family="'MyriadPro-Semibold'" font-size="18px">Headache</text>
<rect y="61.78" fill="#555555" width="226.26" height="50.45"/>
<text transform="matrix(1.0181 0 0 1 9.9999 93.5735)" fill="#FFFFFF" font-family="'MyriadPro-Bold'" font-size="18px">Adverse Reactions</text>
<rect x="227.57" y="203.24" fill="#FFEFE6" width="104.05" height="43.9"/>
<text transform="matrix(1 0 0 1 267.8509 234.0202)" fill="#6D6E70" font-family="'MyriadPro-Regular'" font-size="18px">5%</text>
<rect x="227.57" y="248.21" fill="#F8E3D6" width="104.05" height="46.87"/>
<text transform="matrix(1 0 0 1 267.8509 278.986)" fill="#6D6E70" font-family="'MyriadPro-Regular'" font-size="18px">4%</text>
<rect x="332.99" y="158.27" fill="#F8E3D6" width="104.05" height="43.9"/>
<text transform="matrix(1 0 0 1 373.2718 189.0535)" fill="#6D6E70" font-family="'MyriadPro-Regular'" font-size="18px">6%</text>
<rect x="332.99" y="203.24" fill="#FFEFE6" width="104.05" height="43.9"/>
<text transform="matrix(1 0 0 1 373.2718 234.0202)" fill="#6D6E70" font-family="'MyriadPro-Regular'" font-size="18px">6%</text>
<rect x="332.99" y="248.21" fill="#F8E3D6" width="104.05" height="46.87"/>
<text transform="matrix(1 0 0 1 373.2718 278.986)" fill="#6D6E70" font-family="'MyriadPro-Regular'" font-size="18px">4%</text>
<rect x="438.22" y="158.27" fill="#F8E3D6" width="104.05" height="43.9"/>
<text transform="matrix(1 0 0 1 473.1336 189.0535)" fill="#6D6E70" font-family="'MyriadPro-Regular'" font-size="18px">&lt;1%</text>
<rect x="438.22" y="203.24" fill="#FFEFE6" width="104.05" height="43.9"/>
<text transform="matrix(1 0 0 1 478.4973 234.0202)" fill="#6D6E70" font-family="'MyriadPro-Regular'" font-size="18px">0%</text>
<rect x="438.22" y="248.21" fill="#F8E3D6" width="104.05" height="46.87"/>
<text transform="matrix(1 0 0 1 473.1336 278.986)" fill="#6D6E70" font-family="'MyriadPro-Regular'" font-size="18px">&lt;1%</text>
<rect x="543.55" y="158.27" fill="#E3E3E4" width="104.05" height="43.9"/>
<text transform="matrix(1 0 0 1 584.1487 189.0535)" fill="#6D6E70" font-family="'MyriadPro-Regular'" font-size="18px">NA</text>
<linearGradient id="SVGID_1_" gradientUnits="userSpaceOnUse" x1="393.9414" y1="60.4085" x2="393.9414" y2="0">
	<stop  offset="5.890377e-03" style="stop-color:#E47426"/>
	<stop  offset="0.9954" style="stop-color:#E99051"/>
</linearGradient>
<rect x="227.57" fill="url(#SVGID_1_)" width="332.74" height="60.41"/>
<text transform="matrix(1 0 0 1 337.6219 26.2995)"><tspan x="0" y="0" fill="#FFFFFF" font-family="'ITCAvantGardePro-Bold'" font-size="20px">CABENUVA </tspan><tspan x="23.31" y="22" fill="#FFFFFF" font-family="'ITCAvantGardePro-Md'" font-size="20px">(N=591)</tspan></text>
<rect x="543.55" fill="#D9D9DA" width="315.08" height="60.41"/>
<text transform="matrix(1 0 0 1 597.8552 26.2995)"><tspan x="0" y="0" fill="#6D6E70" font-family="'ITCAvantGardePro-Bold'" font-size="20px">ORAL COMPARATOR </tspan><tspan x="70.23" y="22" fill="#6D6E70" font-family="'ITCAvantGardePro-Md'" font-size="20px">(N=591)</tspan></text>
<rect x="543.55" y="203.24" fill="#EDEEEE" width="104.05" height="43.9"/>
<text transform="matrix(1 0 0 1 578.47 234.0202)" fill="#6D6E70" font-family="'MyriadPro-Regular'" font-size="18px">&lt;1%</text>
<rect x="543.55" y="248.21" fill="#E3E3E4" width="104.05" height="46.87"/>
<text transform="matrix(1 0 0 1 578.47 278.986)" fill="#6D6E70" font-family="'MyriadPro-Regular'" font-size="18px">&lt;1%</text>
<rect x="649.15" y="158.27" fill="#E3E3E4" width="104.05" height="43.9"/>
<text transform="matrix(1 0 0 1 689.7439 189.0535)" fill="#6D6E70" font-family="'MyriadPro-Regular'" font-size="18px">NA</text>
<rect x="649.15" y="203.24" fill="#EDEEEE" width="104.05" height="43.9"/>
<text transform="matrix(1 0 0 1 684.0647 234.0202)" fill="#6D6E70" font-family="'MyriadPro-Regular'" font-size="18px">&lt;1%</text>
<rect x="649.15" y="248.21" fill="#E3E3E4" width="104.05" height="46.87"/>
<text transform="matrix(1 0 0 1 684.0647 278.986)" fill="#6D6E70" font-family="'MyriadPro-Regular'" font-size="18px">&lt;1%</text>
<rect x="754.57" y="158.27" fill="#E3E3E4" width="104.05" height="43.9"/>
<text transform="matrix(1 0 0 1 795.1648 189.0535)" fill="#6D6E70" font-family="'MyriadPro-Regular'" font-size="18px">NA</text>
<rect x="227.57" y="61.78" fill="#555555" width="104.05" height="50.45"/>
<text transform="matrix(1 0 0 1 238.5921 91.5734)" fill="#FFFFFF" font-family="'MyriadPro-Bold'" font-size="18px">All Grades</text>
<rect x="332.99" y="61.78" fill="#555555" width="104.05" height="50.45"/>
<text transform="matrix(1 0 0 1 341.9788 91.5734)" fill="#FFFFFF" font-family="'MyriadPro-Bold'" font-size="18px">Grades 1-2</text>
<rect x="438.22" y="61.78" fill="#555555" width="104.05" height="50.45"/>
<text transform="matrix(1 0 0 1 447.2049 91.5734)" fill="#FFFFFF" font-family="'MyriadPro-Bold'" font-size="18px">Grades 3-4</text>
<rect x="543.55" y="61.78" fill="#555555" width="104.05" height="50.45"/>
<text transform="matrix(1 0 0 1 554.575 91.5734)" fill="#FFFFFF" font-family="'MyriadPro-Bold'" font-size="18px">All Grades</text>
<rect x="649.15" y="61.78" fill="#555555" width="104.05" height="50.45"/>
<text transform="matrix(1 0 0 1 658.136 91.5734)" fill="#FFFFFF" font-family="'MyriadPro-Bold'" font-size="18px">Grades 1-2</text>
<rect x="754.57" y="61.78" fill="#555555" width="104.05" height="50.45"/>
<text transform="matrix(1 0 0 1 763.5569 91.5734)" fill="#FFFFFF" font-family="'MyriadPro-Bold'" font-size="18px">Grades 3-4</text>
<rect y="113.2" fill="#F1F1F1" width="226.31" height="43.9"/>
<text transform="matrix(1 0 0 1 9.9997 140.9824)" fill="#6D6E70" font-family="'MyriadPro-Semibold'" font-size="18px">Injection site reactions</text>
<rect x="227.57" y="113.31" fill="#FFEFE6" width="104.05" height="43.9"/>
<text transform="matrix(1 0 0 1 263.2337 144.0878)" fill="#6D6E70" font-family="'MyriadPro-Regular'" font-size="18px">81%</text>
<rect x="332.99" y="113.31" fill="#FFEFE6" width="104.05" height="43.9"/>
<text transform="matrix(1 0 0 1 368.6546 144.0878)" fill="#6D6E70" font-family="'MyriadPro-Regular'" font-size="18px">77%</text>
<rect x="438.22" y="113.31" fill="#FFEFE6" width="104.05" height="43.9"/>
<text transform="matrix(1 0 0 1 478.4973 144.0878)" fill="#6D6E70" font-family="'MyriadPro-Regular'" font-size="18px">4%</text>
<rect x="543.55" y="113.31" fill="#EDEEEE" width="104.05" height="43.9"/>
<text transform="matrix(1 0 0 1 584.2385 144.0878)" fill="#6D6E70" font-family="'MyriadPro-Regular'" font-size="18px">NA</text>
<rect x="649.15" y="113.31" fill="#EDEEEE" width="104.05" height="43.9"/>
<text transform="matrix(1 0 0 1 689.7439 144.0878)" fill="#6D6E70" font-family="'MyriadPro-Regular'" font-size="18px">NA</text>
<rect x="754.57" y="113.31" fill="#EDEEEE" width="104.05" height="43.9"/>
<text transform="matrix(1 0 0 1 795.1648 144.0878)" fill="#6D6E70" font-family="'MyriadPro-Regular'" font-size="18px">NA</text>
<rect x="754.57" y="203.24" fill="#EDEEEE" width="104.05" height="43.9"/>
<text transform="matrix(1 0 0 1 794.8499 234.0202)" fill="#6D6E70" font-family="'MyriadPro-Regular'" font-size="18px">0%</text>
<rect x="754.57" y="248.21" fill="#E3E3E4" width="104.05" height="46.87"/>
<text transform="matrix(1 0 0 1 794.8499 278.986)" fill="#6D6E70" font-family="'MyriadPro-Regular'" font-size="18px">0%</text>
<rect x="227.57" y="341.12" fill="#F8E3D6" width="104.05" height="43.9"/>
<text transform="matrix(1 0 0 1 267.8509 371.8958)" fill="#6D6E70" font-family="'MyriadPro-Regular'" font-size="18px">3%</text>
<rect y="341.08" fill="#F1F1F1" width="226.31" height="43.9"/>
<text transform="matrix(1 0 0 1 9.9997 368.8564)" fill="#6D6E70" font-family="'MyriadPro-Semibold'" font-size="18px">Nausea</text>
<rect y="386.06" fill="#F1F1F1" width="226.31" height="43.9"/>
<text transform="matrix(1 0 0 1 9.9997 413.8357)" fill="#6D6E70" font-family="'MyriadPro-Semibold'" font-size="18px">Sleep disorders</text>
<text transform="matrix(0.583 0 0 0.583 129.5896 407.8416)" fill="#6D6E70" font-family="'MyriadPro-Semibold'" font-size="18px">||</text>
<rect y="431.04" fill="#F1F1F1" width="226.31" height="46.87"/>
<text transform="matrix(1 0 0 1 9.9997 458.8162)" fill="#6D6E70" font-family="'MyriadPro-Semibold'" font-size="18px">Dizziness</text>
<rect y="479.16" fill="#808080" width="226.31" height="54.79"/>
<text transform="matrix(1 0 0 1 11.9997 501.9419)"><tspan x="0" y="0" fill="#FFFFFF" font-family="'MyriadPro-Semibold'" font-size="18px">Patients with ARs leading  </tspan><tspan x="0" y="21" fill="#FFFFFF" font-family="'MyriadPro-Semibold'" font-size="18px">to withdrawal</tspan></text>
<rect x="227.63" y="479.16" fill="#808080" width="314.65" height="54.79"/>
<text transform="matrix(1 0 0 1 372.5647 514.9418)" fill="#FFFFFF" font-family="'MyriadPro-Semibold'" font-size="18px">3%</text>
<rect x="543.55" y="479.16" fill="#808080" width="315.07" height="54.79"/>
<text transform="matrix(1 0 0 1 688.7048 514.9418)" fill="#FFFFFF" font-family="'MyriadPro-Semibold'" font-size="18px">1%</text>
<rect x="227.57" y="386.08" fill="#FFEFE6" width="104.05" height="43.9"/>
<text transform="matrix(1 0 0 1 267.8509 416.8625)" fill="#6D6E70" font-family="'MyriadPro-Regular'" font-size="18px">2%</text>
<rect x="227.57" y="431.05" fill="#F8E3D6" width="104.05" height="46.87"/>
<text transform="matrix(1 0 0 1 267.8509 461.8284)" fill="#6D6E70" font-family="'MyriadPro-Regular'" font-size="18px">2%</text>
<rect x="332.99" y="341.12" fill="#F8E3D6" width="104.05" height="43.9"/>
<text transform="matrix(1 0 0 1 373.2718 371.8958)" fill="#6D6E70" font-family="'MyriadPro-Regular'" font-size="18px">2%</text>
<rect x="332.99" y="386.08" fill="#FFEFE6" width="104.05" height="43.9"/>
<text transform="matrix(1 0 0 1 373.2718 416.8625)" fill="#6D6E70" font-family="'MyriadPro-Regular'" font-size="18px">2%</text>
<rect x="332.99" y="431.05" fill="#F8E3D6" width="104.05" height="46.87"/>
<text transform="matrix(1 0 0 1 373.2718 461.8284)" fill="#6D6E70" font-family="'MyriadPro-Regular'" font-size="18px">2%</text>
<rect x="438.22" y="341.12" fill="#F8E3D6" width="104.05" height="43.9"/>
<text transform="matrix(1 0 0 1 473.1336 371.8958)" fill="#6D6E70" font-family="'MyriadPro-Regular'" font-size="18px">&lt;1%</text>
<rect x="438.22" y="386.08" fill="#FFEFE6" width="104.05" height="43.9"/>
<text transform="matrix(1 0 0 1 473.1336 416.8625)" fill="#6D6E70" font-family="'MyriadPro-Regular'" font-size="18px">&lt;1%</text>
<rect x="438.22" y="431.05" fill="#F8E3D6" width="104.05" height="46.87"/>
<text transform="matrix(1 0 0 1 478.4973 461.8284)" fill="#6D6E70" font-family="'MyriadPro-Regular'" font-size="18px">0%</text>
<rect x="543.55" y="341.12" fill="#E3E3E4" width="104.05" height="43.9"/>
<text transform="matrix(1 0 0 1 583.8337 371.8958)" fill="#6D6E70" font-family="'MyriadPro-Regular'" font-size="18px">1%</text>
<rect x="543.55" y="386.08" fill="#EDEEEE" width="104.05" height="43.9"/>
<text transform="matrix(1 0 0 1 578.47 416.8625)" fill="#6D6E70" font-family="'MyriadPro-Regular'" font-size="18px">&lt;1%</text>
<rect x="543.55" y="431.05" fill="#E3E3E4" width="104.05" height="46.87"/>
<text transform="matrix(1 0 0 1 578.47 461.8284)" fill="#6D6E70" font-family="'MyriadPro-Regular'" font-size="18px">&lt;1%</text>
<rect x="649.15" y="341.12" fill="#E3E3E4" width="104.05" height="43.9"/>
<text transform="matrix(1 0 0 1 689.429 371.8958)" fill="#6D6E70" font-family="'MyriadPro-Regular'" font-size="18px">1%</text>
<rect x="649.15" y="386.08" fill="#EDEEEE" width="104.05" height="43.9"/>
<text transform="matrix(1 0 0 1 684.0647 416.8625)" fill="#6D6E70" font-family="'MyriadPro-Regular'" font-size="18px">&lt;1%</text>
<rect x="649.15" y="431.05" fill="#E3E3E4" width="104.05" height="46.87"/>
<text transform="matrix(1 0 0 1 684.0647 461.8284)" fill="#6D6E70" font-family="'MyriadPro-Regular'" font-size="18px">&lt;1%</text>
<rect x="754.57" y="341.12" fill="#E3E3E4" width="104.05" height="43.9"/>
<text transform="matrix(1 0 0 1 794.8499 371.8958)" fill="#6D6E70" font-family="'MyriadPro-Regular'" font-size="18px">0%</text>
<rect y="296.1" fill="#F1F1F1" width="226.31" height="43.9"/>
<text transform="matrix(1 0 0 1 9.9997 323.8767)" fill="#6D6E70" font-family="'MyriadPro-Semibold'" font-size="18px">Musculoskeletal pain</text>
<text transform="matrix(0.583 0 0 0.583 173.9948 317.8826)" fill="#6D6E70" font-family="'MyriadPro-Semibold'" font-size="18px">§</text>
<rect x="227.57" y="296.15" fill="#FFEFE6" width="104.05" height="43.9"/>
<text transform="matrix(1 0 0 1 267.8509 326.9294)" fill="#6D6E70" font-family="'MyriadPro-Regular'" font-size="18px">3%</text>
<rect x="332.99" y="296.15" fill="#FFEFE6" width="104.05" height="43.9"/>
<text transform="matrix(1 0 0 1 373.2718 326.9294)" fill="#6D6E70" font-family="'MyriadPro-Regular'" font-size="18px">3%</text>
<rect x="438.22" y="296.15" fill="#FFEFE6" width="104.05" height="43.9"/>
<text transform="matrix(1 0 0 1 478.4973 326.9294)" fill="#6D6E70" font-family="'MyriadPro-Regular'" font-size="18px">0%</text>
<rect x="543.55" y="296.15" fill="#EDEEEE" width="104.05" height="43.9"/>
<text transform="matrix(1 0 0 1 578.47 326.9294)" fill="#6D6E70" font-family="'MyriadPro-Regular'" font-size="18px">&lt;1%</text>
<rect x="649.15" y="296.15" fill="#EDEEEE" width="104.05" height="43.9"/>
<text transform="matrix(1 0 0 1 684.0647 326.9294)" fill="#6D6E70" font-family="'MyriadPro-Regular'" font-size="18px">&lt;1%</text>
<rect x="754.57" y="296.15" fill="#EDEEEE" width="104.05" height="43.9"/>
<text transform="matrix(1 0 0 1 794.8499 326.9294)" fill="#6D6E70" font-family="'MyriadPro-Regular'" font-size="18px">0%</text>
<rect x="754.57" y="386.08" fill="#EDEEEE" width="104.05" height="43.9"/>
<text transform="matrix(1 0 0 1 794.8499 416.8625)" fill="#6D6E70" font-family="'MyriadPro-Regular'" font-size="18px">0%</text>
<rect x="754.57" y="431.05" fill="#E3E3E4" width="104.05" height="46.87"/>
<text transform="matrix(1 0 0 1 794.8499 461.8284)" fill="#6D6E70" font-family="'MyriadPro-Regular'" font-size="18px">0%</text>
</svg>
