<?xml version="1.0" encoding="utf-8"?>
<!-- Generator: Adobe Illustrator 23.0.6, SVG Export Plug-In . SVG Version: 6.00 Build 0)  -->
<svg version="1.1" xmlns="http://www.w3.org/2000/svg" xmlns:xlink="http://www.w3.org/1999/xlink" x="0px" y="0px"
	viewBox="0 0 1117 468" style="enable-background:new 0 0 1117 468;" xml:space="preserve">
	<g id="Layer_1">
		<rect x="0" y="148" style="opacity:0.1;fill:#4E677F;" width="1115" height="124" />
		<rect x="0.4" y="189" style="opacity:0.1;fill:#4E677F;" width="1114.7" height="42" />
		<rect x="2" y="59" style="opacity:8.000000e-02;fill:#808080;" width="1113" height="43" />
		<path style="opacity:8.000000e-02;fill:#808080;" d="M1086.1,440.9H32.1c-16.6,0-30.1-3-30.1-15.4V315h1114.3v110.5
		C1116.3,437.8,1102.8,440.9,1086.1,440.9z" />
		<line style="fill:none;stroke:#FFFFFF;stroke-width:3;stroke-miterlimit:10;" x1="2" y1="46.5" x2="1111.4"
			y2="47.5" />
		<line style="fill:none;stroke:#FFFFFF;stroke-width:3.3414;stroke-miterlimit:10;" x1="228.2" y1="59" x2="228.2"
			y2="441" />
		<line style="fill:none;stroke:#FFFFFF;stroke-width:3.3414;stroke-miterlimit:10;" x1="782.2" y1="59" x2="782.2"
			y2="440.3" />
		<line style="fill:none;stroke:#FFFFFF;stroke-width:3.3414;stroke-miterlimit:10;" x1="483.2" y1="59" x2="483.2"
			y2="440.3" />
		<linearGradient id="SVGID_1_EmeMut_V021-01" gradientUnits="userSpaceOnUse" x1="1.734" y1="123.8509" x2="1115.7126"
			y2="123.8509">
			<stop offset="0" style="stop-color:#314557" />
			<stop offset="0.9986" style="stop-color:#506D85" />
		</linearGradient>
		<rect x="1.7" y="103.1" style="fill:url(#SVGID_1_EmeMut_V021-01);" width="1114" height="41.5" />
		<linearGradient id="SVGID_2_EmeMut_V021-01" gradientUnits="userSpaceOnUse" x1="1.734" y1="291.1291" x2="1116"
			y2="291.1291">
			<stop offset="0" style="stop-color:#424143" />
			<stop offset="0.9986" style="stop-color:#87898B" />
		</linearGradient>
		<rect x="1.7" y="272.2" style="fill:url(#SVGID_2_EmeMut_V021-01);" width="1114.3" height="37.8" />
		<line style="fill:none;stroke:#FFFFFF;stroke-width:3.0416;stroke-miterlimit:10;" x1="0" y1="147.6" x2="771"
			y2="147.4" />
		<line style="fill:none;stroke:#FFFFFF;stroke-width:3.0416;stroke-miterlimit:10;" x1="2" y1="401.1" x2="1116.7"
			y2="401.1" />
		<line style="fill:none;stroke:#FFFFFF;stroke-width:3.9505;stroke-miterlimit:10;" x1="3.2" y1="190.1" x2="1116.3"
			y2="189" />
		<line style="fill:none;stroke:#FFFFFF;stroke-width:3.9505;stroke-miterlimit:10;" x1="2" y1="231.8" x2="1116.3"
			y2="231.8" />
		<rect x="1.1" y="12.4" style="fill:none;" width="846.4" height="19.2" />
		<text transform="matrix(0.9952 0 0 1 1.1439 28.0471)"
			style="fill:#4E677F; font-family:'AvantGarde-Demi'; font-size:22px;">CABENUVA cVF by trial</text>

		<text transform="matrix(0.5802 0 0 0.583 228.9012 20.7214)"
			style="fill:#4E677F; font-family:'AvantGarde-Demi'; font-size:22px;">2</text>
		<line style="fill:none;stroke:#F7BE00;stroke-width:5;stroke-miterlimit:10;" x1="1113" y1="41.9" x2="1.1"
			y2="41.9" />
		<line style="fill:none;stroke:#FFFFFF;stroke-width:3.9505;stroke-miterlimit:10;" x1="4.2" y1="358.1" x2="1113.7"
			y2="357" />
		<path style="opacity:0.1;fill:#808080;" d="M1071.5,401H2v-46h1114.3v40.4C1116.3,399.9,1096.2,401,1071.5,401z" />
	</g>
	<g id="Layer_2">
		<g>
			<rect x="60.9" y="160.7" style="fill:none;" width="112.1" height="20" />
			<text transform="matrix(1 0 0 1 93.5381 173.4857)"
				style="fill:#555555; font-family:'MyriadPro-Regular'; font-size:18px;">Russia</text>
		</g>
		<rect x="33.2" y="330.3" style="fill:none;" width="167.5" height="15.4" />
		<text transform="matrix(1 0 0 1 93.5376 343.1105)"
			style="fill:#555555; font-family:'MyriadPro-Regular'; font-size:18px;">Russia</text>
		<g>
			<rect x="33.2" y="204.3" style="fill:none;" width="167.5" height="15.4" />
			<text transform="matrix(1 0 0 1 93.5376 217.1105)"
				style="fill:#555555; font-family:'MyriadPro-Regular'; font-size:18px;">Russia</text>
		</g>
		<g>
			<rect x="33.2" y="245.3" style="fill:none;" width="167.5" height="15.4" />
			<text transform="matrix(1 0 0 1 91.7104 258.1105)"
				style="fill:#555555; font-family:'MyriadPro-Regular'; font-size:18px;">France</text>
		</g>
		<rect x="29.4" y="414.7" style="fill:none;" width="175.1" height="24.2" />
		<text transform="matrix(1 0 0 1 93.5381 427.4991)"
			style="fill:#555555; font-family:'MyriadPro-Regular'; font-size:18px;">Russia</text>
		<rect x="29.4" y="374.7" style="fill:none;" width="175.1" height="24.2" />
		<text transform="matrix(1 0 0 1 93.5381 387.4991)"
			style="fill:#555555; font-family:'MyriadPro-Regular'; font-size:18px;">Russia</text>
		<rect x="565.6" y="74.3" style="fill:none;" width="134.5" height="17.2" />
		<text transform="matrix(1 0 0 1 571.8738 87.0565)"
			style="fill:#555555; font-family:'MyriadPro-Bold'; font-size:18px;">HIV-1 Subtype</text>
		<g>
			<rect x="598.9" y="160.7" style="fill:none;" width="68" height="19.7" />
			<text transform="matrix(1 0 0 1 614.1816 173.4857)"
				style="fill:#555555; font-family:'MyriadPro-Regular'; font-size:18px;">A/A1</text>
		</g>
		<g>
			<rect x="317.9" y="160.7" style="fill:none;" width="68" height="19.7" />
			<text transform="matrix(1 0 0 1 333.6953 173.4857)"
				style="fill:#555555; font-family:'MyriadPro-Regular'; font-size:18px;">Male</text>
		</g>
		<g>
			<rect x="317.9" y="205.7" style="fill:none;" width="68" height="19.7" />
			<text transform="matrix(1 0 0 1 324.5332 218.4857)"
				style="fill:#555555; font-family:'MyriadPro-Regular'; font-size:18px;">Female</text>
		</g>
		<g>
			<rect x="317.9" y="373.7" style="fill:none;" width="68" height="19.7" />
			<text transform="matrix(1 0 0 1 333.6953 386.4857)"
				style="fill:#555555; font-family:'MyriadPro-Regular'; font-size:18px;">Male</text>
		</g>
		<g>
			<rect x="317.9" y="415.7" style="fill:none;" width="68" height="19.7" />
			<text transform="matrix(1 0 0 1 324.5332 428.4857)"
				style="fill:#555555; font-family:'MyriadPro-Regular'; font-size:18px;">Female</text>
		</g>
		<g>
			<rect x="317.9" y="330.7" style="fill:none;" width="68" height="19.7" />
			<text transform="matrix(1 0 0 1 324.5332 343.4857)"
				style="fill:#555555; font-family:'MyriadPro-Regular'; font-size:18px;">Female</text>
		</g>
		<g>
			<rect x="317.9" y="245.7" style="fill:none;" width="68" height="19.7" />
			<text transform="matrix(1 0 0 1 324.5332 258.4857)"
				style="fill:#555555; font-family:'MyriadPro-Regular'; font-size:18px;">Female</text>
		</g>
		<g>
			<rect x="598.9" y="205.2" style="fill:none;" width="68" height="19.7" />
			<text transform="matrix(1 0 0 1 614.1816 217.9546)"
				style="fill:#555555; font-family:'MyriadPro-Regular'; font-size:18px;">A/A1</text>
		</g>
		<g>
			<rect x="598.9" y="246.2" style="fill:none;" width="68" height="19.7" />
			<text transform="matrix(1 0 0 1 621.5801 258.9546)"
				style="fill:#555555; font-family:'MyriadPro-Regular'; font-size:18px;">AG</text>
		</g>
		<g>
			<rect x="614.5" y="329.7" style="fill:none;" width="36.8" height="17.2" />
			<text transform="matrix(1 0 0 1 622.7773 342.4856)"
				style="fill:#555555; font-family:'MyriadPro-Regular'; font-size:18px;">A1</text>
		</g>
		<g>
			<rect x="614.5" y="371.7" style="fill:none;" width="36.8" height="17.2" />
			<text transform="matrix(1 0 0 1 622.7773 384.4856)"
				style="fill:#555555; font-family:'MyriadPro-Regular'; font-size:18px;">A1</text>
		</g>
		<rect x="823.7" y="74.7" style="fill:none;" width="235.4" height="17.3" />
		<text transform="matrix(1 0 0 1 862.8789 87.5052)"
			style="fill:#555555; font-family:'MyriadPro-Bold'; font-size:18px;">Detection of TEM</text>
		<rect x="49.7" y="74.3" style="fill:none;" width="134.5" height="17.2" />
		<text transform="matrix(1 0 0 1 77.0591 87.0565)"
			style="fill:#555555; font-family:'MyriadPro-Bold'; font-size:18px;">Country</text>
		<rect x="231.7" y="74.7" style="fill:none;" width="235.4" height="17.3" />
		<text transform="matrix(1 0 0 1 334.2031 87.5052)"
			style="fill:#555555; font-family:'MyriadPro-Bold'; font-size:18px;">sex</text>
		<rect x="42.4" y="116.5" style="fill:none;" width="60.9" height="21.2" />

		<text transform="matrix(0.9114 0 0 1 42.3558 130.478)"
			style="fill:#FFFFFF; font-family:'MyriadPro-Bold'; font-size:19.7507px;">ATLAS</text>
		<rect x="42.4" y="284.2" style="fill:none;" width="60.9" height="19.4" />
		<text transform="matrix(1 0 0 1 42.3555 296.992)"
			style="fill:#FFFFFF; font-family:'MyriadPro-Bold'; font-size:18px;">FLAIR</text>
		<g>
			<rect x="614.5" y="416.7" style="fill:none;" width="36.8" height="17.2" />
			<text transform="matrix(1 0 0 1 622.7773 429.4994)"
				style="fill:#555555; font-family:'MyriadPro-Regular'; font-size:18px;">A1</text>
		</g>
		<g>
			<g>
				<linearGradient id="SVGID_3_EmeMut_V021-01" gradientUnits="userSpaceOnUse" x1="931.9493" y1="211.5854"
					x2="951.1203" y2="211.5854">
					<stop offset="0" style="stop-color:#314557" />
					<stop offset="0.9986" style="stop-color:#506D85" />
				</linearGradient>
				<path style="fill:url(#SVGID_3_EmeMut_V021-01);" d="M943.2,211.6l7.5-7.5c0.5-0.5,0.5-1.2,0-1.7c-0.5-0.5-1.2-0.5-1.7,0l-7.5,7.5l-7.5-7.5
				c-0.5-0.5-1.2-0.5-1.7,0c-0.5,0.5-0.5,1.2,0,1.7l7.5,7.5l-7.5,7.5c-0.5,0.5-0.5,1.2,0,1.7c0.2,0.2,0.5,0.4,0.8,0.4
				s0.6-0.1,0.8-0.4l7.5-7.5l7.5,7.5c0.2,0.2,0.5,0.4,0.8,0.4c0.3,0,0.6-0.1,0.8-0.4c0.5-0.5,0.5-1.2,0-1.7L943.2,211.6z
				 M943.2,211.6" />
			</g>
		</g>
		<g>
			<g>
				<linearGradient id="SVGID_4_EmeMut_V021-01" gradientUnits="userSpaceOnUse" x1="931.9493" y1="254.5854"
					x2="951.1203" y2="254.5854">
					<stop offset="0" style="stop-color:#314557" />
					<stop offset="0.9986" style="stop-color:#506D85" />
				</linearGradient>
				<path style="fill:url(#SVGID_4_EmeMut_V021-01);" d="M943.2,254.6l7.5-7.5c0.5-0.5,0.5-1.2,0-1.7c-0.5-0.5-1.2-0.5-1.7,0l-7.5,7.5l-7.5-7.5
				c-0.5-0.5-1.2-0.5-1.7,0c-0.5,0.5-0.5,1.2,0,1.7l7.5,7.5l-7.5,7.5c-0.5,0.5-0.5,1.2,0,1.7c0.2,0.2,0.5,0.4,0.8,0.4
				s0.6-0.1,0.8-0.4l7.5-7.5l7.5,7.5c0.2,0.2,0.5,0.4,0.8,0.4c0.3,0,0.6-0.1,0.8-0.4c0.5-0.5,0.5-1.2,0-1.7L943.2,254.6z
				 M943.2,254.6" />
			</g>
		</g>
		<g>
			<g>
				<linearGradient id="SVGID_5_EmeMut_V021-01" gradientUnits="userSpaceOnUse" x1="928" y1="169.6954" x2="954.4042"
					y2="169.6954">
					<stop offset="0" style="stop-color:#314557" />
					<stop offset="0.9986" style="stop-color:#506D85" />
				</linearGradient>
				<path style="fill:url(#SVGID_5_EmeMut_V021-01);"
					d="M954,160.4c-0.5-0.5-1.4-0.5-1.9,0l-15.8,15.8l-6.1-6.1c-0.5-0.5-1.4-0.5-1.9,0
				c-0.5,0.5-0.5,1.4,0,1.9l7,7c0.5,0.5,1.4,0.5,1.9,0l16.8-16.8C954.5,161.7,954.5,160.9,954,160.4L954,160.4z M954,160.4" />
			</g>
		</g>
		<g>
			<g>
				<linearGradient id="SVGID_6_EmeMut_V021-01" gradientUnits="userSpaceOnUse" x1="928" y1="336.6954" x2="954.4042"
					y2="336.6954">
					<stop offset="0" style="stop-color:#424143" />
					<stop offset="0.9986" style="stop-color:#87898B" />
				</linearGradient>
				<path style="fill:url(#SVGID_6_EmeMut_V021-01);"
					d="M954,327.4c-0.5-0.5-1.4-0.5-1.9,0l-15.8,15.8l-6.1-6.1c-0.5-0.5-1.4-0.5-1.9,0
				c-0.5,0.5-0.5,1.4,0,1.9l7,7c0.5,0.5,1.4,0.5,1.9,0l16.8-16.8C954.5,328.7,954.5,327.9,954,327.4L954,327.4z M954,327.4" />
			</g>
		</g>
		<g>
			<g>
				<linearGradient id="SVGID_7_EmeMut_V021-01" gradientUnits="userSpaceOnUse" x1="931" y1="379.6954" x2="957.4042"
					y2="379.6954">
					<stop offset="0" style="stop-color:#424143" />
					<stop offset="0.9986" style="stop-color:#87898B" />
				</linearGradient>
				<path style="fill:url(#SVGID_7_EmeMut_V021-01);"
					d="M957,370.4c-0.5-0.5-1.4-0.5-1.9,0l-15.8,15.8l-6.1-6.1c-0.5-0.5-1.4-0.5-1.9,0
				c-0.5,0.5-0.5,1.4,0,1.9l7,7c0.5,0.5,1.4,0.5,1.9,0l16.8-16.8C957.5,371.7,957.5,370.9,957,370.4L957,370.4z M957,370.4" />
			</g>
		</g>
		<g>
			<g>
				<linearGradient id="SVGID_8_EmeMut_V021-01" gradientUnits="userSpaceOnUse" x1="931" y1="422.4152" x2="957.4042"
					y2="422.4152">
					<stop offset="0" style="stop-color:#424143" />
					<stop offset="0.9986" style="stop-color:#87898B" />
				</linearGradient>
				<path style="fill:url(#SVGID_8_EmeMut_V021-01);"
					d="M957,413.1c-0.5-0.5-1.4-0.5-1.9,0l-15.8,15.8l-6.1-6.1c-0.5-0.5-1.4-0.5-1.9,0
				c-0.5,0.5-0.5,1.4,0,1.9l7,7c0.5,0.5,1.4,0.5,1.9,0L957,415C957.5,414.5,957.5,413.6,957,413.1L957,413.1z M957,413.1" />
			</g>
		</g>
	</g>
</svg>