<?xml version="1.0" encoding="utf-8"?>
<!-- Generator: Adobe Illustrator 23.1.1, SVG Export Plug-In . SVG Version: 6.00 Build 0)  -->
<svg version="1.1" xmlns="http://www.w3.org/2000/svg" xmlns:xlink="http://www.w3.org/1999/xlink" x="0px" y="0px"
	 viewBox="0 0 849 400" style="enable-background:new 0 0 849 400;" xml:space="preserve">
<style type="text/css">
	.st0{display:none;}
	.st1{display:inline;fill:none;stroke:#939598;stroke-width:0.2;stroke-miterlimit:10;}
	.st2{display:inline;}
	.st3{fill:none;stroke:#A8A5A6;stroke-width:0.8412;stroke-miterlimit:10;}
	.st4{fill:none;stroke:#A8A5A6;stroke-width:0.8412;stroke-miterlimit:10;stroke-dasharray:3.7037,3.7037;}
	.st5{display:inline;fill:none;stroke:#A8A5A6;stroke-width:0.5949;stroke-miterlimit:10;}
	.st6{display:inline;fill:none;stroke:#7C7A7A;stroke-width:0.6475;stroke-miterlimit:10;}
	.st7{display:inline;fill:none;stroke:#231F20;stroke-width:0.5792;stroke-miterlimit:10;}
	.st8{fill:#FFFFFF;}
	.st9{display:inline;fill:url(#SVGID_1_);}
	.st10{display:inline;fill:url(#SVGID_2_);}
	.st11{display:inline;fill:#939598;}
	.st12{display:inline;fill:none;stroke:#A8AAAD;stroke-width:3.1755;stroke-miterlimit:10;}
	.st13{opacity:0.1;fill:#CCCCCB;}
	.st14{fill:none;stroke:#000000;stroke-width:0.2735;stroke-miterlimit:10;}
	.st15{fill:none;stroke:#A8A5A6;stroke-width:0.319;stroke-miterlimit:10;}
	.st16{fill:none;stroke:#A8A5A6;stroke-width:0.319;stroke-miterlimit:10;stroke-dasharray:2.3687,2.3687;}
	.st17{fill:none;stroke:#A8A5A6;stroke-width:0.319;stroke-miterlimit:10;stroke-dasharray:2.3727,2.3727;}
	.st18{fill:#6D6E71;}
	.st19{font-family:'MyriadPro-Bold';}
	.st20{font-size:14.15px;}
	.st21{font-size:14px;}
	.st22{fill:url(#SVGID_3_);}
	.st23{font-family:'ITCAvantGardePro-Demi';}
	.st24{font-size:34px;}
	.st25{font-size:28px;}
	.st26{fill:url(#SVGID_4_);}
	.st27{fill:none;}
	.st28{font-family:'ITCAvantGardePro-Bk';}
	.st29{font-size:11px;}
	.st30{fill:none;stroke:#A8A5A6;stroke-width:0.3;stroke-miterlimit:10;}
	.st31{fill:none;stroke:#A8A5A6;stroke-width:0.3;stroke-miterlimit:10;stroke-dasharray:2.2101,2.2101;}
	.st32{fill:#999999;}
	.st33{fill:#F57E20;}
	.st34{font-size:15px;}
	.st35{font-family:'MyriadPro-Regular';}
	.st36{font-size:13px;}
	.st37{fill:#F7BE00;}
	.st38{fill:#4E677F;}
	.st39{font-size:18px;}
	.st40{fill:none;stroke:#6D6E71;stroke-width:0.4851;stroke-miterlimit:10;}
	.st41{filter:url(#Adobe_OpacityMaskFilter);}
	.st42{mask:url(#SVGID_5_);fill:none;}
	.st43{filter:url(#Adobe_OpacityMaskFilter_1_);}
	.st44{opacity:0.5;mask:url(#SVGID_6_);fill:url(#SVGID_7_);}
</style>
<g id="GUIDES" class="st0">
</g>
<g id="Layer_1">
</g>
<g id="Layer_3" class="st0">
</g>
<g id="Layer_4">
	<path class="st13" d="M484.6,83v279c1.2,0.1,2.5,0.2,3.4,0.3c16.2,0.1,32.4,0.2,48.6,0.3h312.6V83H484.6z"/>
	<path class="st13" d="M59.6,83v279c1.1,0.1,2.2,0.2,3,0.3c14.3,0.1,28.6,0.2,43,0.3H382V83H59.6z"/>
	<path class="st14" d="M484.6,83v279c1.2,0.1,2.5,0.2,3.4,0.3c16.2,0.1,32.4,0.2,48.6,0.3h312.6V83H484.6z"/>
	<path class="st14" d="M59.6,83v279c1.1,0.1,2.2,0.2,3,0.3c14.3,0.1,28.6,0.2,43,0.3H382V83H59.6z"/>
	<g>
		<g>
			<line class="st15" x1="484.3" y1="316.1" x2="485.5" y2="316.1"/>
			<line class="st16" x1="487.9" y1="316.1" x2="846.7" y2="316.1"/>
			<line class="st15" x1="847.9" y1="316.1" x2="849.1" y2="316.1"/>
		</g>
	</g>
	<g>
		<g>
			<line class="st15" x1="484.3" y1="269.3" x2="485.5" y2="269.3"/>
			<line class="st16" x1="487.9" y1="269.3" x2="846.7" y2="269.3"/>
			<line class="st15" x1="847.9" y1="269.3" x2="849.1" y2="269.3"/>
		</g>
	</g>
	<g>
		<g>
			<line class="st15" x1="484.3" y1="222.6" x2="485.5" y2="222.6"/>
			<line class="st16" x1="487.9" y1="222.6" x2="846.7" y2="222.6"/>
			<line class="st15" x1="847.9" y1="222.6" x2="849.1" y2="222.6"/>
		</g>
	</g>
	<g>
		<g>
			<line class="st15" x1="484.3" y1="175.8" x2="485.5" y2="175.8"/>
			<line class="st16" x1="487.9" y1="175.8" x2="846.7" y2="175.8"/>
			<line class="st15" x1="847.9" y1="175.8" x2="849.1" y2="175.8"/>
		</g>
	</g>
	<g>
		<g>
			<line class="st15" x1="484.3" y1="128.8" x2="485.5" y2="128.8"/>
			<line class="st16" x1="487.9" y1="128.8" x2="846.7" y2="128.8"/>
			<line class="st15" x1="847.9" y1="128.8" x2="849.1" y2="128.8"/>
		</g>
	</g>
	<g>
		<g>
			<line class="st15" x1="59.3" y1="128.8" x2="60.5" y2="128.8"/>
			<line class="st17" x1="62.9" y1="128.8" x2="379.6" y2="128.8"/>
			<line class="st15" x1="380.8" y1="128.8" x2="382" y2="128.8"/>
		</g>
	</g>
	<g>
		<text transform="matrix(1 0 0 1 124.2344 382.1436)" class="st18 st19 st20">CABENUVA</text>
	</g>
	<text transform="matrix(1 0 0 1 234.4775 382.1436)" class="st18 st19 st20">ABC/DTG/3TC*</text>
	<text transform="matrix(1 0 0 1 670.4053 382.1436)" class="st18 st19 st20">ABC/DTG/3TC*</text>
	<g>
		<text transform="matrix(1 0 0 1 133.0791 396.4863)" class="st18 st19 st21">n=6/283</text>
	</g>
	<text transform="matrix(1 0 0 1 253.1992 396.4863)" class="st18 st19 st21">n=7/283</text>
	<g>
		<text transform="matrix(1 -1.780000e-03 1.780000e-03 1 566.217 382.1406)" class="st18 st19 st20">CABENUVA</text>
	</g>
	<g>
		<text transform="matrix(1 -1.780000e-03 1.780000e-03 1 569.6669 396.601)" class="st18 st19 st21">n=265/283</text>
	</g>
	<linearGradient id="SVGID_1_" gradientUnits="userSpaceOnUse" x1="602.3879" y1="363" x2="602.3879" y2="141.9485">
		<stop  offset="0" style="stop-color:#999999"/>
		<stop  offset="0" style="stop-color:#D46E1B"/>
		<stop  offset="0" style="stop-color:#F57E20;stop-opacity:0.6"/>
		<stop  offset="1" style="stop-color:#F57E20"/>
	</linearGradient>
	<path style="fill:url(#SVGID_1_);" d="M630,141.9h-55.2c-5.5,0-10,4.5-10,10v143v-1.2V363H640v-68.1l0,0V152
		C640,146.4,635.5,141.9,630,141.9z"/>
	<text transform="matrix(1 0 0 1 572.3668 182.8833)"><tspan x="0" y="0" class="st8 st23 st24">94</tspan><tspan x="36.4" y="0" class="st8 st23 st25">%</tspan></text>
	<g>
		<text transform="matrix(1 0 0 1 685.1846 396.4863)" class="st18 st19 st21">n=264/283</text>
	</g>
	<linearGradient id="SVGID_2_" gradientUnits="userSpaceOnUse" x1="716.9323" y1="363" x2="716.9323" y2="145.9485">
		<stop  offset="0" style="stop-color:#808080;stop-opacity:0.8"/>
		<stop  offset="1" style="stop-color:#999999"/>
	</linearGradient>
	<path style="fill:url(#SVGID_2_);" d="M744.1,145.9h-54.3c-5.5,0-9.9,4.4-9.9,9.9L679.9,363v-0.2v0.2h74l0.2-66.1l0,0V155.8
		C754,150.4,749.6,145.9,744.1,145.9z"/>
	<text transform="matrix(1 0 0 1 689.4604 182.8833)"><tspan x="0" y="0" class="st8 st23 st24">93</tspan><tspan x="36.4" y="0" class="st8 st23 st25">%</tspan></text>
	<rect x="28" y="311.2" class="st27" width="26.2" height="8.8"/>
	<text transform="matrix(1 0 0 1 42.0005 319.3657)" class="st18 st28 st29">20</text>
	<rect x="28" y="355" class="st27" width="26.2" height="9"/>
	<text transform="matrix(1 0 0 1 48.0942 363.144)" class="st18 st28 st29">0</text>
	<rect x="28" y="264.2" class="st27" width="26.2" height="10.8"/>
	<text transform="matrix(1 0 0 1 42.0005 272.3286)" class="st18 st28 st29">40</text>
	<rect x="28" y="217.2" class="st27" width="26.2" height="10.8"/>
	<text transform="matrix(1 0 0 1 42.0005 225.2915)" class="st18 st28 st29">60</text>
	<rect x="28" y="171.1" class="st27" width="26.2" height="9.9"/>
	<text transform="matrix(1 0 0 1 42.0005 179.2544)" class="st18 st28 st29">80</text>
	<rect x="28.1" y="125" class="st27" width="26.1" height="10"/>
	<text transform="matrix(1 0 0 1 35.9062 133.1392)" class="st18 st28 st29">100</text>
	<g>
		<g>
			<line class="st30" x1="59.3" y1="316.1" x2="60.4" y2="316.1"/>
			<line class="st31" x1="62.6" y1="316.1" x2="379.8" y2="316.1"/>
			<line class="st30" x1="380.9" y1="316.1" x2="382" y2="316.1"/>
		</g>
	</g>
	<g>
		<g>
			<line class="st30" x1="59.3" y1="269.3" x2="60.4" y2="269.3"/>
			<line class="st31" x1="62.6" y1="269.3" x2="379.8" y2="269.3"/>
			<line class="st30" x1="380.9" y1="269.3" x2="382" y2="269.3"/>
		</g>
	</g>
	<g>
		<g>
			<line class="st30" x1="59.3" y1="222.6" x2="60.4" y2="222.6"/>
			<line class="st31" x1="62.6" y1="222.6" x2="379.8" y2="222.6"/>
			<line class="st30" x1="380.9" y1="222.6" x2="382" y2="222.6"/>
		</g>
	</g>
	<g>
		<g>
			<line class="st30" x1="59.3" y1="175.8" x2="60.4" y2="175.8"/>
			<line class="st31" x1="62.6" y1="175.8" x2="379.8" y2="175.8"/>
			<line class="st30" x1="380.9" y1="175.8" x2="382" y2="175.8"/>
		</g>
	</g>
	<path class="st32" d="M244.7,357v5.5c0.2,0,0.5,0,0.7,0c3.2,0,6.3,0,9.5,0H316V357H244.7z"/>
	<path class="st33" d="M124.5,358.1v4.5c0.2,0,0.5,0,0.7,0c3.2,0,6.3,0,9.5,0H196v-4.5H124.5z"/>
	<text transform="matrix(1 -1.920000e-03 1.920000e-03 1 143.0637 354.4155)"><tspan x="0" y="0" class="st33 st23 st24">2</tspan><tspan x="18.2" y="0" class="st33 st23 st25">%</tspan></text>
	<g>
		<text transform="matrix(1 1.260000e-03 -1.260000e-03 1 259.5497 354.2579)"><tspan x="0" y="0" class="st32 st23 st24">2</tspan><tspan x="18.2" y="0" class="st32 st23 st25">%</tspan></text>
	</g>
	<g>
		<rect x="45" y="56.5" class="st27" width="351.7" height="16.5"/>
		<text transform="matrix(1 0 0 1 52.6416 69.0898)"><tspan x="0" y="0" class="st18 st19 st34">P</tspan><tspan x="8" y="0" class="st18 st19 st34">r</tspan><tspan x="13.4" y="0" class="st18 st19 st34">imary endpoint: HIV-1 RNA ≥50 copies/mL at Week 48</tspan></text>
	</g>
	<g>
		
			<rect x="-107.3" y="236.2" transform="matrix(1.432666e-03 -1 1 1.432666e-03 -232.2865 255.8824)" class="st27" width="238.5" height="16"/>
		<text transform="matrix(0 -1 1 0 14.6729 314.1748)" class="st18 st35 st36">Proportion of patients (%)</text>
	</g>
	<text transform="matrix(1 0 0 1 543.5693 69.0898)" class="st18 st19 st34">HIV-1 RNA &lt;50 copies/mL at Week 48</text>
	<rect x="453" y="311.2" class="st27" width="26.2" height="8.8"/>
	<text transform="matrix(1 0 0 1 467.0005 319.3657)" class="st18 st28 st29">20</text>
	<rect x="453" y="355" class="st27" width="26.2" height="9"/>
	<text transform="matrix(1 0 0 1 473.0942 363.144)" class="st18 st28 st29">0</text>
	<rect x="453" y="264.2" class="st27" width="26.2" height="10.8"/>
	<text transform="matrix(1 0 0 1 467.0005 272.3286)" class="st18 st28 st29">40</text>
	<rect x="453" y="217.2" class="st27" width="26.2" height="10.8"/>
	<text transform="matrix(1 0 0 1 467.0005 225.2915)" class="st18 st28 st29">60</text>
	<rect x="453" y="171.1" class="st27" width="26.2" height="9.9"/>
	<text transform="matrix(1 0 0 1 467.0005 179.2544)" class="st18 st28 st29">80</text>
	<rect x="453.1" y="125" class="st27" width="26.1" height="10"/>
	<text transform="matrix(1 0 0 1 460.9062 133.1392)" class="st18 st28 st29">100</text>
	<g>
		
			<rect x="318.7" y="236.2" transform="matrix(1.432666e-03 -1 1 1.432666e-03 193.101 681.8798)" class="st27" width="238.5" height="16"/>
		<text transform="matrix(0 -1 1 0 440.6729 314.1748)" class="st18 st35 st36">Proportion of patients (%)</text>
	</g>
	<rect y="34" class="st37" width="849" height="3"/>
	<rect x="2.7" y="14.1" class="st27" width="467.3" height="13.9"/>
	<text transform="matrix(1 0 0 1 2.7275 26.8916)" class="st38 st19 st39">ITT-E SNAPSHOT Virologic outcomeS</text>
	<text transform="matrix(0.583 0 0 0.583 326.7988 20.8975)" class="st38 st19 st39">1,2</text>
	<rect x="83.4" y="281" class="st27" width="285.8" height="33"/>
	<text transform="matrix(1 0 0 1 177.8698 291.8828)"><tspan x="0" y="0" class="st18 st35 st36">Difference: -0.4% </tspan><tspan x="-10.6" y="12" class="st18 st35 st36">(95% CI: -2.8%–2.1%)</tspan></text>
	<polyline class="st40" points="288,313 288,309 165,309 165,313 	"/>
	<rect x="510.2" y="91" class="st27" width="285.8" height="37"/>
	<text transform="matrix(1 0 0 1 606.9062 101.8828)"><tspan x="0" y="0" class="st18 st35 st36">Difference: </tspan><tspan x="61.6" y="0" class="st18 st35 st36">0.4% </tspan><tspan x="-11" y="12" class="st18 st35 st36">(95% CI: -3.7%–4.5%)</tspan></text>
	<polyline class="st40" points="708,124 708,120 591,120 591,124 	"/>
</g>
<g id="Layer_5">
	<defs>
		<filter id="Adobe_OpacityMaskFilter" filterUnits="userSpaceOnUse" x="556.2" y="147.6" width="13.3" height="215.4">
			<feColorMatrix  type="matrix" values="1 0 0 0 0  0 1 0 0 0  0 0 1 0 0  0 0 0 1 0"/>
		</filter>
	</defs>
	<mask maskUnits="userSpaceOnUse" x="556.2" y="147.6" width="13.3" height="215.4" id="SVGID_3_">
		<g class="st41">
			<path class="st8" d="M532.9,145.9H560c2.7,0,4.9,4.5,4.9,10v143v-1.2V363H528v-64.1l0,0V156C528,150.4,530.2,145.9,532.9,145.9z"
				/>
		</g>
	</mask>
	<polygon style="mask:url(#SVGID_3_);fill:none;" points="569.5,147.6 557.2,159.9 556.2,363 569.4,363 	"/>
	<defs>
		<filter id="Adobe_OpacityMaskFilter_1_" filterUnits="userSpaceOnUse" x="671.2" y="147.6" width="13.3" height="215.4">
			<feColorMatrix  type="matrix" values="1 0 0 0 0  0 1 0 0 0  0 0 1 0 0  0 0 0 1 0"/>
		</filter>
	</defs>
	<mask maskUnits="userSpaceOnUse" x="671.2" y="147.6" width="13.3" height="215.4" id="SVGID_4_">
		<g class="st43">
			<path class="st8" d="M647.9,145.9H675c2.7,0,4.9,4.5,4.9,10v143v-1.2V363H643v-64.1l0,0V156C643,150.4,645.2,145.9,647.9,145.9z"
				/>
		</g>
	</mask>
	<linearGradient id="SVGID_5_" gradientUnits="userSpaceOnUse" x1="671.2211" y1="255.3098" x2="684.4908" y2="255.3098">
		<stop  offset="0" style="stop-color:#2484C6;stop-opacity:0"/>
		<stop  offset="0.1192" style="stop-color:#3D81BA;stop-opacity:5.958257e-02"/>
		<stop  offset="0.3702" style="stop-color:#55789E;stop-opacity:0.1851"/>
		<stop  offset="0.7286" style="stop-color:#515A69;stop-opacity:0.3643"/>
		<stop  offset="1" style="stop-color:#000000;stop-opacity:0.5"/>
	</linearGradient>
	<polygon style="opacity:0.5;mask:url(#SVGID_4_);fill:url(#SVGID_5_);" points="684.5,147.6 672.2,159.9 671.2,363 684.4,363 	"/>
</g>
</svg>
