<svg title="005-pooled-analysis-baseline-patient-characteristics" version="1.1" id="Layer_1"
	xmlns="http://www.w3.org/2000/svg" xmlns:xlink="http://www.w3.org/1999/xlink" x="0px" y="0px" viewBox="0 0 1293 493"
	enable-background="new 0 0 1293 493" xml:space="preserve">
	<path opacity="0.15" fill="#B3B3B3" d="M880.93,493h384.95c14.39,0,26.05-11.66,26.05-26.05V242.87h-411V493z" />
	<rect x="481.93" y="63" opacity="0.1" fill="#E67300" width="398" height="118" />
	<rect x="481.5" y="1" fill="#E67300" width="398.43" height="60" />
	<rect x="880.93" y="56" transform="matrix(-1 -6.052170e-12 6.052170e-12 -1 2172.8525 238)" opacity="0.15"
		fill="#B3B3B3" width="411" height="126" />
	<rect x="481.93" y="242" opacity="0.1" fill="#E67300" width="398" height="250.8" />
	<rect x="481.93" y="123" opacity="0.1" fill="#E67300" width="398" height="60.54" />
	<rect x="481.93" y="307" opacity="0.1" fill="#E67300" width="398" height="60.54" />
	<rect x="879.93" y="123" opacity="0.15" fill="#B3B3B3" width="411" height="60.54" />
	<rect x="879.93" y="307" opacity="0.15" fill="#B3B3B3" width="411" height="60.54" />
	<rect x="481.93" y="432" opacity="0.1" fill="#E67300" width="398" height="60.54" />
	<path opacity="0.15" fill="#B3B3B3" d="M879.93,432h412v35.12c0,14.04-11.38,25.42-25.42,25.42H879.93V432z" />
	<path opacity="0.15" fill="#B3B3B3" d="M480.93,493H26.92C12.88,493,1.5,481.62,1.5,467.58V61h479.43V493z" />
	<path display="none" fill="#506D85"
		d="M244.93-22h1194c8.28,0,15,6.72,15,15v36h-1224V-7C229.93-15.28,236.64-22,244.93-22z" />
	<rect x="879.93" y="1" fill="#CCCCCC" width="412.09" height="60" />
	<rect x="0.93" y="184" fill="#555555" width="1291" height="58" />
	<rect x="16.97" y="83.5" fill="none" width="312.95" height="48.71" />
	<text transform="matrix(1 0 0 1 16.9717 96.2784)" fill="#555555" font-family="'MyriadPro-Bold'"
		font-size="18px">Median age, years (range)</text>
	<rect x="16.97" y="147.85" fill="none" width="173" height="21.61" />
	<text transform="matrix(1 0 0 1 16.9717 160.6297)" fill="#555555" font-family="'MyriadPro-Bold'"
		font-size="18px">Female* </text>
	<rect x="16.97" y="208.6" fill="none" width="173" height="31.61" />
	<text transform="matrix(1 0 0 1 16.9717 221.3785)" fill="#FFFFFF" font-family="'MyriadPro-Bold'"
		font-size="18px">Race</text>
	<rect x="47.42" y="268.85" fill="none" width="173" height="21.61" />
	<text transform="matrix(1 0 0 1 47.4209 281.6293)" fill="#555555" font-family="'MyriadPro-Regular'"
		font-size="18px">White</text>
	<rect x="47.42" y="331.67" fill="none" width="272.51" height="31.61" />
	<text transform="matrix(1 0 0 1 47.4209 344.4486)" fill="#555555" font-family="'MyriadPro-Regular'"
		font-size="18px">African American/African heritage</text>
	<rect x="47.42" y="390.04" fill="none" width="207.08" height="21.61" />
	<text transform="matrix(1 0 0 1 47.4209 402.8221)" fill="#555555" font-family="'MyriadPro-Regular'"
		font-size="18px">Other</text>
	<rect x="533.14" y="86.04" fill="none" width="294" height="17.27" />
	<text transform="matrix(1 0 0 1 642.6514 98.8224)" fill="#555555" font-family="'MyriadPro-Regular'"
		font-size="18px">38 (19-74)</text>
	<rect x="533.14" y="146.46" fill="none" width="294" height="17.27" />
	<text transform="matrix(1 0 0 1 663.7745 159.2425)" fill="#555555" font-family="'MyriadPro-Regular'"
		font-size="18px">27%</text>
	<rect x="533.14" y="268.21" fill="none" width="294" height="17.27" />
	<text transform="matrix(1 0 0 1 663.7745 280.9918)" fill="#555555" font-family="'MyriadPro-Regular'"
		font-size="18px">73%</text>
	<rect x="533.14" y="331.21" fill="none" width="294" height="17.27" />
	<text transform="matrix(1 0 0 1 663.7745 343.9918)" fill="#555555" font-family="'MyriadPro-Regular'"
		font-size="18px">18%</text>
	<rect x="533.14" y="392.46" fill="none" width="294" height="17.27" />
	<text transform="matrix(1 0 0 1 668.3907 405.2426)" fill="#555555" font-family="'MyriadPro-Regular'"
		font-size="18px">9%</text>
	<rect x="533.14" y="457.29" fill="none" width="294" height="17.27" />
	<text transform="matrix(1 0 0 1 628.8008 470.0732)" fill="#555555" font-family="'MyriadPro-Regular'"
		font-size="18px">645 (487-824)</text>
	<rect x="923.22" y="85.67" fill="none" width="324" height="17.27" />
	<text transform="matrix(1 0 0 1 1047.7375 98.4506)" fill="#555555" font-family="'MyriadPro-Regular'"
		font-size="18px">38 (18-82)</text>
	<rect x="923.22" y="146.09" fill="none" width="324" height="17.27" />
	<text transform="matrix(1 0 0 1 1068.8606 158.8707)" fill="#555555" font-family="'MyriadPro-Regular'"
		font-size="18px">28%</text>
	<rect x="923.22" y="267.84" fill="none" width="324" height="17.27" />
	<text transform="matrix(1 0 0 1 1068.8606 280.62)" fill="#555555" font-family="'MyriadPro-Regular'"
		font-size="18px">69%</text>
	<rect x="923.22" y="330.84" fill="none" width="324" height="17.27" />
	<text transform="matrix(1 0 0 1 1068.8606 343.62)" fill="#555555" font-family="'MyriadPro-Regular'"
		font-size="18px">23%</text>
	<rect x="923.22" y="392.09" fill="none" width="324" height="17.27" />
	<text transform="matrix(1 0 0 1 1073.4768 404.8707)" fill="#555555" font-family="'MyriadPro-Regular'"
		font-size="18px">8%</text>
	<rect x="923.22" y="457.29" fill="none" width="324" height="17.27" />
	<text transform="matrix(1 0 0 1 1033.887 470.0733)" fill="#555555" font-family="'MyriadPro-Regular'"
		font-size="18px">641 (480-821)</text>
	<line fill="none" stroke="#FFFFFF" stroke-width="3" stroke-miterlimit="10" x1="481.43" y1="0" x2="481.43"
		y2="183.71" />
	<line fill="none" stroke="#FFFFFF" stroke-width="3" stroke-miterlimit="10" x1="1.5" y1="61.1" x2="1293" y2="61.1" />
	<line fill="none" stroke="#FFFFFF" stroke-width="3" stroke-miterlimit="10" x1="0" y1="122.1" x2="1292" y2="122.1" />
	<line fill="none" stroke="#FFFFFF" stroke-width="3" stroke-miterlimit="10" x1="0" y1="184.1" x2="1292" y2="184.1" />
	<line fill="none" stroke="#FFFFFF" stroke-width="3" stroke-miterlimit="10" x1="0" y1="244.1" x2="1292" y2="244.1" />
	<line fill="none" stroke="#FFFFFF" stroke-width="3" stroke-miterlimit="10" x1="0" y1="306.1" x2="1292" y2="306.1" />
	<line fill="none" stroke="#FFFFFF" stroke-width="3" stroke-miterlimit="10" x1="0" y1="368.1" x2="1292" y2="368.1" />
	<line fill="none" stroke="#FFFFFF" stroke-width="3" stroke-miterlimit="10" x1="0" y1="430.1" x2="1292" y2="430.1" />
	<line fill="none" stroke="#FFFFFF" stroke-width="3" stroke-miterlimit="10" x1="880.36" y1="0.5" x2="880.36"
		y2="184.5" />
	<line fill="none" stroke="#FFFFFF" stroke-width="2.8021" stroke-miterlimit="10" x1="880.65" y1="243.84" x2="880.07"
		y2="492.56" />
	<line fill="none" stroke="#FFFFFF" stroke-width="2.8021" stroke-miterlimit="10" x1="481.65" y1="243.84" x2="481.07"
		y2="492.56" />
	<rect x="16.97" y="457.29" fill="none" width="456.95" height="13.71" />
	<text transform="matrix(1 0 0 1 16.9717 470.0734)" fill="#555555" font-family="'MyriadPro-Bold'"
		font-size="18px">Median baseline CD4</text>
	<text transform="matrix(0.583 0 0 0.583 185.4307 464.0792)" fill="#555555" font-family="'MyriadPro-Bold'"
		font-size="18px">+</text>
	<text transform="matrix(1 0 0 1 195.6846 470.0734)" fill="#555555" font-family="'MyriadPro-Bold'" font-size="18px">
		T-cell count, cells/mm<tspan textLength="1" dx="-3" dy="-10" font-size="14px" font-family="MyriadPro-Bold">3</tspan>
	</text>
	<text transform="matrix(1 0 0 1 379.6846 470.0734)" fill="#555555" font-family="'MyriadPro-Bold'" font-size="18px">
		(IQR)
	</text>
	<rect x="980.47" y="15.35" fill="none" width="213.5" height="37.65" />
	<text transform="matrix(1 0 0 1 1004.5941 28.1278)">
		<tspan x="0" y="0" fill="#555555" font-family="'MyriadPro-Bold'" font-size="18px">ORAL COMPARATOR </tspan>
		<tspan x="60.28" y="19" fill="#555555" font-family="'MyriadPro-Regular'" font-size="16px">N=591</tspan>
	</text>
	<rect x="599" y="14.35" fill="none" width="162.28" height="37.44" />
	<text transform="matrix(1 0 0 1 634.6597 27.1279)">
		<tspan x="0" y="0" fill="#FFFFFF" font-family="'MyriadPro-Bold'" font-size="18px">CABENUVA </tspan>
		<tspan x="23.13" y="19" fill="#FFFFFF" font-family="'MyriadPro-Regular'" font-size="16px">N=591</tspan>
	</text>
</svg>