<?xml version="1.0" encoding="utf-8"?>
<!-- Generator: Adobe Illustrator 21.0.2, SVG Export Plug-In . SVG Version: 6.00 Build 0)  -->
<svg version="1.1" id="Layer_1" xmlns="http://www.w3.org/2000/svg" xmlns:xlink="http://www.w3.org/1999/xlink" x="0px" y="0px"
	 viewBox="0 0 128 128" style="enable-background:new 0 0 128 128;" xml:space="preserve">
<style type="text/css">
	.st0{clip-path:url(#SVGID_2_);}
	.st1{fill:#ADA6A1;}
</style>
<g>
	<defs>
		<rect id="SVGID_1_" x="0" y="0" transform="matrix(-1 -8.979852e-11 8.979852e-11 -1 128 128)" width="128" height="128"/>
	</defs>
	<clipPath id="SVGID_2_">
		<use xlink:href="#SVGID_1_"  style="overflow:visible;opacity:0;"/>
	</clipPath>
	<g class="st0">
		<polygon class="st1" points="18.2,99.4 63.2,59.8 107.2,99.4 122.9,83.4 63.2,27.4 3.9,83.1 		"/>
	</g>
</g>
</svg>
