<svg xmlns="http://www.w3.org/2000/svg" width="45" height="37">
    <path fill="#f6bd00" fill-rule="evenodd" d="M41.5 22h-38a3.5 3.5 0 1 1 0-7h38a3.5 3.5 0 1 1 0 7zm0-15h-38a3.5 3.5 0 1 1 0-7h38a3.5 3.5 0 1 1 0 7zm-38 23h38a3.5 3.5 0 1 1 0 7h-38a3.5 3.5 0 1 1 0-7z"/>
</svg>
